<?xml version="1.0" encoding="UTF-8"?>
<CustomTab xmlns="http://soap.sforce.com/2006/04/metadata">
    <auraComponent>WarehouseAssignments</auraComponent>
    <description>Temporary tab, just used to easily access Warehouse tool while it&apos;s being worked on.</description>
    <label>Warehouse Assignments</label>
    <mobileReady>false</mobileReady>
    <motif>Custom26: Flag</motif>
</CustomTab>
