{
    "constructors": [],
    "externalReferences": [],
    "id": "01p3B000000G9g8QAC",
    "innerClasses": [],
    "interfaces": [],
    "key": "01p3B000000G9g8QAC",
    "methods": [
        {
            "annotations": [],
            "location": {
                "column": 21,
                "line": 3
            },
            "modifiers": [
                "static",
                "public"
            ],
            "name": "handleInsert",
            "parameters": [
                {
                    "name": "newAccounts",
                    "type": "LIST"
                }
            ],
            "references": [],
            "returnType": "void",
            "type": null
        },
        {
            "annotations": [],
            "location": {
                "column": 21,
                "line": 8
            },
            "modifiers": [
                "static",
                "public"
            ],
            "name": "handleUpdate",
            "parameters": [
                {
                    "name": "newAccounts",
                    "type": "LIST"
                },
                {
                    "name": "oldMap",
                    "type": "Map"
                }
            ],
            "references": [],
            "returnType": "void",
            "type": null
        },
        {
            "annotations": [],
            "location": {
                "column": 22,
                "line": 13
            },
            "modifiers": [
                "private",
                "static"
            ],
            "name": "getTaxCode",
            "parameters": [
                {
                    "name": "newAccounts",
                    "type": "LIST"
                }
            ],
            "references": [],
            "returnType": "void",
            "type": null
        }
    ],
    "name": "AccountTriggerHandler",
    "namespace": null,
    "parentClass": "",
    "properties": [],
    "tableDeclaration": {
        "annotations": [],
        "location": {
            "column": 27,
            "line": 1
        },
        "modifiers": [
            "public",
            "with sharing"
        ],
        "name": "AccountTriggerHandler",
        "references": [],
        "type": "AccountTriggerHandler"
    },
    "variables": [
        {
            "annotations": [],
            "location": {
                "column": 48,
                "line": 3
            },
            "modifiers": [],
            "name": "newAccounts",
            "references": [],
            "type": "LIST"
        },
        {
            "annotations": [],
            "location": {
                "column": 48,
                "line": 8
            },
            "modifiers": [],
            "name": "newAccounts",
            "references": [],
            "type": "LIST"
        },
        {
            "annotations": [],
            "location": {
                "column": 78,
                "line": 8
            },
            "modifiers": [],
            "name": "oldMap",
            "references": [],
            "type": "Map"
        },
        {
            "annotations": [],
            "location": {
                "column": 47,
                "line": 13
            },
            "modifiers": [],
            "name": "newAccounts",
            "references": [],
            "type": "LIST"
        },
        {
            "annotations": [],
            "location": {
                "column": 16,
                "line": 15
            },
            "modifiers": [],
            "name": "vars",
            "references": [],
            "type": "Variables__c"
        },
        {
            "annotations": [],
            "location": {
                "column": 16,
                "line": 17
            },
            "modifiers": [],
            "name": "states",
            "references": [],
            "type": "LIST"
        },
        {
            "annotations": [],
            "location": {
                "column": 15,
                "line": 18
            },
            "modifiers": [],
            "name": "acct",
            "references": [],
            "type": "Account"
        },
        {
            "annotations": [],
            "location": {
                "column": 30,
                "line": 25
            },
            "modifiers": [],
            "name": "stateMappings",
            "references": [],
            "type": "LIST"
        },
        {
            "annotations": [],
            "location": {
                "column": 16,
                "line": 26
            },
            "modifiers": [],
            "name": "acct",
            "references": [],
            "type": "Account"
        },
        {
            "annotations": [],
            "location": {
                "column": 14,
                "line": 30
            },
            "modifiers": [],
            "name": "foundMapping",
            "references": [],
            "type": "Boolean"
        },
        {
            "annotations": [],
            "location": {
                "column": 30,
                "line": 31
            },
            "modifiers": [],
            "name": "tcm",
            "references": [],
            "type": "Tax_Code_Mapping__c"
        },
        {
            "annotations": [],
            "location": {
                "column": 31,
                "line": 45
            },
            "modifiers": [],
            "name": "tcm",
            "references": [],
            "type": "Tax_Code_Mapping__c"
        },
        {
            "annotations": [],
            "location": {
                "column": 31,
                "line": 59
            },
            "modifiers": [],
            "name": "tcm",
            "references": [],
            "type": "Tax_Code_Mapping__c"
        }
    ]
}