{
    "constructors": [],
    "externalReferences": [],
    "id": "01p3B000000G4feQAC",
    "innerClasses": [],
    "interfaces": [],
    "key": "01p3B000000G4feQAC",
    "methods": [
        {
            "annotations": [],
            "location": {
                "column": 21,
                "line": 3
            },
            "modifiers": [
                "static",
                "public"
            ],
            "name": "handleBeforeInsert",
            "parameters": [
                {
                    "name": "newConfs",
                    "type": "LIST"
                }
            ],
            "references": [],
            "returnType": "void",
            "type": null
        },
        {
            "annotations": [],
            "location": {
                "column": 21,
                "line": 44
            },
            "modifiers": [
                "static",
                "public"
            ],
            "name": "handleAfterInsert",
            "parameters": [
                {
                    "name": "newConfs",
                    "type": "LIST"
                },
                {
                    "name": "oldMap",
                    "type": "Map"
                }
            ],
            "references": [],
            "returnType": "void",
            "type": null
        },
        {
            "annotations": [],
            "location": {
                "column": 22,
                "line": 175
            },
            "modifiers": [
                "private",
                "static"
            ],
            "name": "createForms",
            "parameters": [
                {
                    "name": "confirm",
                    "type": "Confirmation__c"
                },
                {
                    "name": "accts",
                    "type": "LIST"
                },
                {
                    "name": "opRT",
                    "type": "RecordType"
                },
                {
                    "name": "sbybRT",
                    "type": "RecordType"
                },
                {
                    "name": "galleryRT",
                    "type": "RecordType"
                },
                {
                    "name": "twRT",
                    "type": "RecordType"
                }
            ],
            "references": [],
            "returnType": "void",
            "type": null
        },
        {
            "annotations": [],
            "location": {
                "column": 22,
                "line": 211
            },
            "modifiers": [
                "private",
                "static"
            ],
            "name": "createAForm",
            "parameters": [
                {
                    "name": "code",
                    "type": "String"
                },
                {
                    "name": "confirmId",
                    "type": "Id"
                }
            ],
            "references": [],
            "returnType": "void",
            "type": null
        },
        {
            "annotations": [],
            "location": {
                "column": 22,
                "line": 227
            },
            "modifiers": [
                "private",
                "static"
            ],
            "name": "createBForm",
            "parameters": [
                {
                    "name": "code",
                    "type": "String"
                },
                {
                    "name": "confirmId",
                    "type": "Id"
                }
            ],
            "references": [],
            "returnType": "void",
            "type": null
        },
        {
            "annotations": [],
            "location": {
                "column": 22,
                "line": 243
            },
            "modifiers": [
                "private",
                "static"
            ],
            "name": "createDForm",
            "parameters": [
                {
                    "name": "code",
                    "type": "String"
                },
                {
                    "name": "confirmId",
                    "type": "Id"
                }
            ],
            "references": [],
            "returnType": "void",
            "type": null
        },
        {
            "annotations": [],
            "location": {
                "column": 22,
                "line": 259
            },
            "modifiers": [
                "private",
                "static"
            ],
            "name": "createSForm",
            "parameters": [
                {
                    "name": "code",
                    "type": "String"
                },
                {
                    "name": "confirmId",
                    "type": "Id"
                }
            ],
            "references": [],
            "returnType": "void",
            "type": null
        }
    ],
    "name": "ConfirmationTriggerHandler",
    "namespace": null,
    "parentClass": "",
    "properties": [],
    "tableDeclaration": {
        "annotations": [],
        "location": {
            "column": 27,
            "line": 1
        },
        "modifiers": [
            "public",
            "with sharing"
        ],
        "name": "ConfirmationTriggerHandler",
        "references": [],
        "type": "ConfirmationTriggerHandler"
    },
    "variables": [
        {
            "annotations": [],
            "location": {
                "column": 62,
                "line": 3
            },
            "modifiers": [],
            "name": "newConfs",
            "references": [],
            "type": "LIST"
        },
        {
            "annotations": [],
            "location": {
                "column": 12,
                "line": 6
            },
            "modifiers": [],
            "name": "confAccountIds",
            "references": [],
            "type": "Set"
        },
        {
            "annotations": [],
            "location": {
                "column": 24,
                "line": 7
            },
            "modifiers": [],
            "name": "conf",
            "references": [],
            "type": "Confirmation__c"
        },
        {
            "annotations": [],
            "location": {
                "column": 20,
                "line": 13
            },
            "modifiers": [],
            "name": "vars",
            "references": [],
            "type": "Variables__c"
        },
        {
            "annotations": [],
            "location": {
                "column": 17,
                "line": 14
            },
            "modifiers": [],
            "name": "currentSeason",
            "references": [],
            "type": "String"
        },
        {
            "annotations": [],
            "location": {
                "column": 20,
                "line": 16
            },
            "modifiers": [],
            "name": "season",
            "references": [],
            "type": "Season__c"
        },
        {
            "annotations": [],
            "location": {
                "column": 18,
                "line": 18
            },
            "modifiers": [],
            "name": "accts",
            "references": [],
            "type": "LIST"
        },
        {
            "annotations": [],
            "location": {
                "column": 24,
                "line": 19
            },
            "modifiers": [],
            "name": "conf",
            "references": [],
            "type": "Confirmation__c"
        },
        {
            "annotations": [],
            "location": {
                "column": 23,
                "line": 23
            },
            "modifiers": [],
            "name": "acct",
            "references": [],
            "type": "Account"
        },
        {
            "annotations": [],
            "location": {
                "column": 33,
                "line": 30
            },
            "modifiers": [],
            "name": "con",
            "references": [],
            "type": "Confirmation__c"
        },
        {
            "annotations": [],
            "location": {
                "column": 61,
                "line": 44
            },
            "modifiers": [],
            "name": "newConfs",
            "references": [],
            "type": "LIST"
        },
        {
            "annotations": [],
            "location": {
                "column": 96,
                "line": 44
            },
            "modifiers": [],
            "name": "oldMap",
            "references": [],
            "type": "Map"
        },
        {
            "annotations": [],
            "location": {
                "column": 32,
                "line": 48
            },
            "modifiers": [],
            "name": "cpList",
            "references": [],
            "type": "LIST"
        },
        {
            "annotations": [],
            "location": {
                "column": 11,
                "line": 50
            },
            "modifiers": [],
            "name": "confAccountIds",
            "references": [],
            "type": "Set"
        },
        {
            "annotations": [],
            "location": {
                "column": 14,
                "line": 51
            },
            "modifiers": [],
            "name": "confSeasonIds",
            "references": [],
            "type": "Set"
        },
        {
            "annotations": [],
            "location": {
                "column": 26,
                "line": 52
            },
            "modifiers": [],
            "name": "conf",
            "references": [],
            "type": "Confirmation__c"
        },
        {
            "annotations": [],
            "location": {
                "column": 30,
                "line": 63
            },
            "modifiers": [],
            "name": "spList",
            "references": [],
            "type": "LIST"
        },
        {
            "annotations": [],
            "location": {
                "column": 18,
                "line": 65
            },
            "modifiers": [],
            "name": "recordtype",
            "references": [],
            "type": "RecordType"
        },
        {
            "annotations": [],
            "location": {
                "column": 27,
                "line": 67
            },
            "modifiers": [],
            "name": "conf",
            "references": [],
            "type": "Confirmation__c"
        },
        {
            "annotations": [],
            "location": {
                "column": 33,
                "line": 71
            },
            "modifiers": [],
            "name": "sp",
            "references": [],
            "type": "SeasonProduct__c"
        },
        {
            "annotations": [],
            "location": {
                "column": 43,
                "line": 75
            },
            "modifiers": [],
            "name": "cp",
            "references": [],
            "type": "ConfirmationProduct__c"
        },
        {
            "annotations": [],
            "location": {
                "column": 30,
                "line": 98
            },
            "modifiers": [],
            "name": "sp",
            "references": [],
            "type": "SeasonProduct__c"
        },
        {
            "annotations": [],
            "location": {
                "column": 43,
                "line": 102
            },
            "modifiers": [],
            "name": "cp",
            "references": [],
            "type": "ConfirmationProduct__c"
        },
        {
            "annotations": [],
            "location": {
                "column": 17,
                "line": 135
            },
            "modifiers": [],
            "name": "accts",
            "references": [],
            "type": "LIST"
        },
        {
            "annotations": [],
            "location": {
                "column": 17,
                "line": 136
            },
            "modifiers": [],
            "name": "updateAccts",
            "references": [],
            "type": "LIST"
        },
        {
            "annotations": [],
            "location": {
                "column": 11,
                "line": 137
            },
            "modifiers": [],
            "name": "updateAcctIds",
            "references": [],
            "type": "Set"
        },
        {
            "annotations": [],
            "location": {
                "column": 14,
                "line": 139
            },
            "modifiers": [],
            "name": "opRT",
            "references": [],
            "type": "RecordType"
        },
        {
            "annotations": [],
            "location": {
                "column": 14,
                "line": 140
            },
            "modifiers": [],
            "name": "sbybRT",
            "references": [],
            "type": "RecordType"
        },
        {
            "annotations": [],
            "location": {
                "column": 14,
                "line": 141
            },
            "modifiers": [],
            "name": "galleryRT",
            "references": [],
            "type": "RecordType"
        },
        {
            "annotations": [],
            "location": {
                "column": 14,
                "line": 142
            },
            "modifiers": [],
            "name": "twRT",
            "references": [],
            "type": "RecordType"
        },
        {
            "annotations": [],
            "location": {
                "column": 23,
                "line": 144
            },
            "modifiers": [],
            "name": "conf",
            "references": [],
            "type": "Confirmation__c"
        },
        {
            "annotations": [],
            "location": {
                "column": 32,
                "line": 146
            },
            "modifiers": [],
            "name": "confList",
            "references": [],
            "type": "LIST"
        },
        {
            "annotations": [],
            "location": {
                "column": 22,
                "line": 147
            },
            "modifiers": [],
            "name": "acct",
            "references": [],
            "type": "Account"
        },
        {
            "annotations": [],
            "location": {
                "column": 34,
                "line": 149
            },
            "modifiers": [],
            "name": "con",
            "references": [],
            "type": "Confirmation__c"
        },
        {
            "annotations": [],
            "location": {
                "column": 50,
                "line": 175
            },
            "modifiers": [],
            "name": "confirm",
            "references": [],
            "type": "Confirmation__c"
        },
        {
            "annotations": [],
            "location": {
                "column": 73,
                "line": 175
            },
            "modifiers": [],
            "name": "accts",
            "references": [],
            "type": "LIST"
        },
        {
            "annotations": [],
            "location": {
                "column": 91,
                "line": 175
            },
            "modifiers": [],
            "name": "opRT",
            "references": [],
            "type": "RecordType"
        },
        {
            "annotations": [],
            "location": {
                "column": 108,
                "line": 175
            },
            "modifiers": [],
            "name": "sbybRT",
            "references": [],
            "type": "RecordType"
        },
        {
            "annotations": [],
            "location": {
                "column": 127,
                "line": 175
            },
            "modifiers": [],
            "name": "galleryRT",
            "references": [],
            "type": "RecordType"
        },
        {
            "annotations": [],
            "location": {
                "column": 149,
                "line": 175
            },
            "modifiers": [],
            "name": "twRT",
            "references": [],
            "type": "RecordType"
        },
        {
            "annotations": [],
            "location": {
                "column": 10,
                "line": 180
            },
            "modifiers": [],
            "name": "schoolCode",
            "references": [],
            "type": "String"
        },
        {
            "annotations": [],
            "location": {
                "column": 15,
                "line": 181
            },
            "modifiers": [],
            "name": "acct",
            "references": [],
            "type": "Account"
        },
        {
            "annotations": [],
            "location": {
                "column": 41,
                "line": 211
            },
            "modifiers": [],
            "name": "code",
            "references": [],
            "type": "String"
        },
        {
            "annotations": [],
            "location": {
                "column": 50,
                "line": 211
            },
            "modifiers": [],
            "name": "confirmId",
            "references": [],
            "type": "Id"
        },
        {
            "annotations": [],
            "location": {
                "column": 11,
                "line": 213
            },
            "modifiers": [],
            "name": "formA",
            "references": [],
            "type": "Form__c"
        },
        {
            "annotations": [],
            "location": {
                "column": 41,
                "line": 227
            },
            "modifiers": [],
            "name": "code",
            "references": [],
            "type": "String"
        },
        {
            "annotations": [],
            "location": {
                "column": 50,
                "line": 227
            },
            "modifiers": [],
            "name": "confirmId",
            "references": [],
            "type": "Id"
        },
        {
            "annotations": [],
            "location": {
                "column": 11,
                "line": 229
            },
            "modifiers": [],
            "name": "formB",
            "references": [],
            "type": "Form__c"
        },
        {
            "annotations": [],
            "location": {
                "column": 41,
                "line": 243
            },
            "modifiers": [],
            "name": "code",
            "references": [],
            "type": "String"
        },
        {
            "annotations": [],
            "location": {
                "column": 50,
                "line": 243
            },
            "modifiers": [],
            "name": "confirmId",
            "references": [],
            "type": "Id"
        },
        {
            "annotations": [],
            "location": {
                "column": 11,
                "line": 245
            },
            "modifiers": [],
            "name": "formD",
            "references": [],
            "type": "Form__c"
        },
        {
            "annotations": [],
            "location": {
                "column": 41,
                "line": 259
            },
            "modifiers": [],
            "name": "code",
            "references": [],
            "type": "String"
        },
        {
            "annotations": [],
            "location": {
                "column": 50,
                "line": 259
            },
            "modifiers": [],
            "name": "confirmId",
            "references": [],
            "type": "Id"
        },
        {
            "annotations": [],
            "location": {
                "column": 11,
                "line": 261
            },
            "modifiers": [],
            "name": "formS",
            "references": [],
            "type": "Form__c"
        },
        {
            "annotations": [],
            "location": {
                "column": 18,
                "line": 278
            },
            "modifiers": [],
            "name": "track",
            "references": [],
            "type": "Tracking__c"
        }
    ]
}