{
    "constructors": [
        {
            "annotations": [],
            "location": {
                "column": 12,
                "line": 17
            },
            "modifiers": [
                "public"
            ],
            "name": "DearFamilyLetterExtension",
            "parameters": [
                {
                    "name": "stdcontroller",
                    "type": "StandardController"
                }
            ],
            "references": [],
            "type": null
        }
    ],
    "externalReferences": [],
    "id": "01p3B000000Fl0SQAS",
    "innerClasses": [],
    "interfaces": [],
    "key": "01p3B000000Fl0SQAS",
    "methods": [
        {
            "annotations": [],
            "location": {
                "column": 28,
                "line": 21
            },
            "modifiers": [
                "public"
            ],
            "name": "getInfo",
            "parameters": [],
            "references": [],
            "returnType": "Confirmation__c",
            "type": null
        },
        {
            "annotations": [],
            "location": {
                "column": 41,
                "line": 27
            },
            "modifiers": [
                "public"
            ],
            "name": "getConfirmationProducts",
            "parameters": [],
            "references": [],
            "returnType": "LIST",
            "type": null
        },
        {
            "annotations": [],
            "location": {
                "column": 41,
                "line": 72
            },
            "modifiers": [
                "public"
            ],
            "name": "getConfirmationProductsSpanish",
            "parameters": [],
            "references": [],
            "returnType": "LIST",
            "type": null
        },
        {
            "annotations": [],
            "location": {
                "column": 20,
                "line": 105
            },
            "modifiers": [
                "public"
            ],
            "name": "getDFLCoord",
            "parameters": [],
            "references": [],
            "returnType": "Contact",
            "type": null
        },
        {
            "annotations": [],
            "location": {
                "column": 19,
                "line": 124
            },
            "modifiers": [
                "public"
            ],
            "name": "getFormatPhone",
            "parameters": [],
            "references": [],
            "returnType": "String",
            "type": null
        },
        {
            "annotations": [],
            "location": {
                "column": 26,
                "line": 132
            },
            "modifiers": [
                "public"
            ],
            "name": "getEnglishDFL",
            "parameters": [],
            "references": [],
            "returnType": "PageReference",
            "type": null
        },
        {
            "annotations": [],
            "location": {
                "column": 26,
                "line": 163
            },
            "modifiers": [
                "public"
            ],
            "name": "getEnglishDFLSBYB",
            "parameters": [],
            "references": [],
            "returnType": "PageReference",
            "type": null
        },
        {
            "annotations": [],
            "location": {
                "column": 26,
                "line": 194
            },
            "modifiers": [
                "public"
            ],
            "name": "getSpanishDFL",
            "parameters": [],
            "references": [],
            "returnType": "PageReference",
            "type": null
        },
        {
            "annotations": [],
            "location": {
                "column": 26,
                "line": 226
            },
            "modifiers": [
                "public"
            ],
            "name": "getSpanishDFLSBYB",
            "parameters": [],
            "references": [],
            "returnType": "PageReference",
            "type": null
        },
        {
            "annotations": [],
            "location": {
                "column": 26,
                "line": 258
            },
            "modifiers": [
                "public"
            ],
            "name": "getDFLSBYBOP",
            "parameters": [],
            "references": [],
            "returnType": "PageReference",
            "type": null
        },
        {
            "annotations": [],
            "location": {
                "column": 26,
                "line": 295
            },
            "modifiers": [
                "public"
            ],
            "name": "getGalleryForm",
            "parameters": [],
            "references": [],
            "returnType": "PageReference",
            "type": null
        },
        {
            "annotations": [],
            "location": {
                "column": 26,
                "line": 322
            },
            "modifiers": [
                "public"
            ],
            "name": "getEnglishSpanishDFLs",
            "parameters": [],
            "references": [],
            "returnType": "PageReference",
            "type": null
        },
        {
            "annotations": [],
            "location": {
                "column": 48,
                "line": 328
            },
            "modifiers": [
                "static",
                "public"
            ],
            "name": "parseJSONCPBody",
            "parameters": [
                {
                    "name": "body",
                    "type": "String"
                }
            ],
            "references": [],
            "returnType": "LIST",
            "type": null
        }
    ],
    "name": "DearFamilyLetterExtension",
    "namespace": null,
    "parentClass": "",
    "properties": [
        {
            "annotations": [],
            "location": {
                "column": 28,
                "line": 13
            },
            "modifiers": [
                "public"
            ],
            "name": "conf",
            "references": [],
            "type": "Confirmation__c"
        },
        {
            "annotations": [],
            "location": {
                "column": 20,
                "line": 14
            },
            "modifiers": [
                "public"
            ],
            "name": "phone",
            "references": [],
            "type": "Decimal"
        },
        {
            "annotations": [],
            "location": {
                "column": 34,
                "line": 15
            },
            "modifiers": [
                "public"
            ],
            "name": "conProdToOWProdMap",
            "references": [],
            "type": "Map"
        }
    ],
    "tableDeclaration": {
        "annotations": [],
        "location": {
            "column": 14,
            "line": 1
        },
        "modifiers": [
            "public"
        ],
        "name": "DearFamilyLetterExtension",
        "references": [],
        "type": "DearFamilyLetterExtension"
    },
    "variables": [
        {
            "annotations": [],
            "location": {
                "column": 67,
                "line": 17
            },
            "modifiers": [],
            "name": "stdcontroller",
            "references": [],
            "type": "StandardController"
        },
        {
            "annotations": [],
            "location": {
                "column": 22,
                "line": 28
            },
            "modifiers": [],
            "name": "var",
            "references": [],
            "type": "Variables__c"
        },
        {
            "annotations": [],
            "location": {
                "column": 14,
                "line": 30
            },
            "modifiers": [],
            "name": "h",
            "references": [],
            "type": "Http"
        },
        {
            "annotations": [],
            "location": {
                "column": 21,
                "line": 31
            },
            "modifiers": [],
            "name": "req",
            "references": [],
            "type": "HttpRequest"
        },
        {
            "annotations": [],
            "location": {
                "column": 16,
                "line": 36
            },
            "modifiers": [],
            "name": "username",
            "references": [],
            "type": "String"
        },
        {
            "annotations": [],
            "location": {
                "column": 16,
                "line": 37
            },
            "modifiers": [],
            "name": "password",
            "references": [],
            "type": "String"
        },
        {
            "annotations": [],
            "location": {
                "column": 14,
                "line": 39
            },
            "modifiers": [],
            "name": "headerValue",
            "references": [],
            "type": "Blob"
        },
        {
            "annotations": [],
            "location": {
                "column": 16,
                "line": 40
            },
            "modifiers": [],
            "name": "authorizationHeader",
            "references": [],
            "type": "String"
        },
        {
            "annotations": [],
            "location": {
                "column": 22,
                "line": 43
            },
            "modifiers": [],
            "name": "res",
            "references": [],
            "type": "HttpResponse"
        },
        {
            "annotations": [],
            "location": {
                "column": 48,
                "line": 47
            },
            "modifiers": [],
            "name": "mock",
            "references": [],
            "type": "TestDatabaseConfirmProdCalloutMock"
        },
        {
            "annotations": [],
            "location": {
                "column": 38,
                "line": 62
            },
            "modifiers": [],
            "name": "lines",
            "references": [],
            "type": "LIST"
        },
        {
            "annotations": [],
            "location": {
                "column": 38,
                "line": 73
            },
            "modifiers": [],
            "name": "conprod",
            "references": [],
            "type": "LIST"
        },
        {
            "annotations": [],
            "location": {
                "column": 18,
                "line": 74
            },
            "modifiers": [],
            "name": "owProdIds",
            "references": [],
            "type": "LIST"
        },
        {
            "annotations": [],
            "location": {
                "column": 36,
                "line": 75
            },
            "modifiers": [],
            "name": "cp",
            "references": [],
            "type": "ConfirmationProduct__c"
        },
        {
            "annotations": [],
            "location": {
                "column": 28,
                "line": 78
            },
            "modifiers": [],
            "name": "owprod",
            "references": [],
            "type": "LIST"
        },
        {
            "annotations": [],
            "location": {
                "column": 36,
                "line": 82
            },
            "modifiers": [],
            "name": "cp",
            "references": [],
            "type": "ConfirmationProduct__c"
        },
        {
            "annotations": [],
            "location": {
                "column": 30,
                "line": 84
            },
            "modifiers": [],
            "name": "op",
            "references": [],
            "type": "OWProduct__c"
        },
        {
            "annotations": [],
            "location": {
                "column": 38,
                "line": 106
            },
            "modifiers": [],
            "name": "confirmationcon",
            "references": [],
            "type": "LIST"
        },
        {
            "annotations": [],
            "location": {
                "column": 17,
                "line": 107
            },
            "modifiers": [],
            "name": "DFLCoord",
            "references": [],
            "type": "Contact"
        },
        {
            "annotations": [],
            "location": {
                "column": 36,
                "line": 113
            },
            "modifiers": [],
            "name": "cc",
            "references": [],
            "type": "ConfirmationContact__c"
        },
        {
            "annotations": [],
            "location": {
                "column": 16,
                "line": 125
            },
            "modifiers": [],
            "name": "format",
            "references": [],
            "type": "String"
        },
        {
            "annotations": [],
            "location": {
                "column": 16,
                "line": 133
            },
            "modifiers": [],
            "name": "recordId",
            "references": [],
            "type": "String"
        },
        {
            "annotations": [],
            "location": {
                "column": 20,
                "line": 134
            },
            "modifiers": [],
            "name": "attach",
            "references": [],
            "type": "Attachment"
        },
        {
            "annotations": [],
            "location": {
                "column": 23,
                "line": 135
            },
            "modifiers": [],
            "name": "pdf",
            "references": [],
            "type": "PageReference"
        },
        {
            "annotations": [],
            "location": {
                "column": 14,
                "line": 138
            },
            "modifiers": [],
            "name": "body",
            "references": [],
            "type": "Blob"
        },
        {
            "annotations": [],
            "location": {
                "column": 12,
                "line": 139
            },
            "modifiers": [],
            "name": "rid",
            "references": [],
            "type": "Id"
        },
        {
            "annotations": [],
            "location": {
                "column": 25,
                "line": 141
            },
            "modifiers": [],
            "name": "confirmation",
            "references": [],
            "type": "Confirmation__c"
        },
        {
            "annotations": [],
            "location": {
                "column": 16,
                "line": 145
            },
            "modifiers": [],
            "name": "attachName",
            "references": [],
            "type": "String"
        },
        {
            "annotations": [],
            "location": {
                "column": 23,
                "line": 159
            },
            "modifiers": [],
            "name": "recordpage",
            "references": [],
            "type": "PageReference"
        },
        {
            "annotations": [],
            "location": {
                "column": 16,
                "line": 164
            },
            "modifiers": [],
            "name": "recordId",
            "references": [],
            "type": "String"
        },
        {
            "annotations": [],
            "location": {
                "column": 20,
                "line": 165
            },
            "modifiers": [],
            "name": "attach",
            "references": [],
            "type": "Attachment"
        },
        {
            "annotations": [],
            "location": {
                "column": 23,
                "line": 166
            },
            "modifiers": [],
            "name": "pdf",
            "references": [],
            "type": "PageReference"
        },
        {
            "annotations": [],
            "location": {
                "column": 14,
                "line": 169
            },
            "modifiers": [],
            "name": "body",
            "references": [],
            "type": "Blob"
        },
        {
            "annotations": [],
            "location": {
                "column": 12,
                "line": 170
            },
            "modifiers": [],
            "name": "rid",
            "references": [],
            "type": "Id"
        },
        {
            "annotations": [],
            "location": {
                "column": 25,
                "line": 172
            },
            "modifiers": [],
            "name": "confirmation",
            "references": [],
            "type": "Confirmation__c"
        },
        {
            "annotations": [],
            "location": {
                "column": 16,
                "line": 176
            },
            "modifiers": [],
            "name": "attachName",
            "references": [],
            "type": "String"
        },
        {
            "annotations": [],
            "location": {
                "column": 23,
                "line": 190
            },
            "modifiers": [],
            "name": "recordpage",
            "references": [],
            "type": "PageReference"
        },
        {
            "annotations": [],
            "location": {
                "column": 16,
                "line": 195
            },
            "modifiers": [],
            "name": "recordId",
            "references": [],
            "type": "String"
        },
        {
            "annotations": [],
            "location": {
                "column": 20,
                "line": 197
            },
            "modifiers": [],
            "name": "attach",
            "references": [],
            "type": "Attachment"
        },
        {
            "annotations": [],
            "location": {
                "column": 23,
                "line": 198
            },
            "modifiers": [],
            "name": "pdf",
            "references": [],
            "type": "PageReference"
        },
        {
            "annotations": [],
            "location": {
                "column": 14,
                "line": 201
            },
            "modifiers": [],
            "name": "body",
            "references": [],
            "type": "Blob"
        },
        {
            "annotations": [],
            "location": {
                "column": 12,
                "line": 202
            },
            "modifiers": [],
            "name": "rid",
            "references": [],
            "type": "Id"
        },
        {
            "annotations": [],
            "location": {
                "column": 25,
                "line": 204
            },
            "modifiers": [],
            "name": "confirmation",
            "references": [],
            "type": "Confirmation__c"
        },
        {
            "annotations": [],
            "location": {
                "column": 16,
                "line": 208
            },
            "modifiers": [],
            "name": "attachName",
            "references": [],
            "type": "String"
        },
        {
            "annotations": [],
            "location": {
                "column": 23,
                "line": 222
            },
            "modifiers": [],
            "name": "recordpage",
            "references": [],
            "type": "PageReference"
        },
        {
            "annotations": [],
            "location": {
                "column": 16,
                "line": 227
            },
            "modifiers": [],
            "name": "recordId",
            "references": [],
            "type": "String"
        },
        {
            "annotations": [],
            "location": {
                "column": 20,
                "line": 229
            },
            "modifiers": [],
            "name": "attach",
            "references": [],
            "type": "Attachment"
        },
        {
            "annotations": [],
            "location": {
                "column": 23,
                "line": 230
            },
            "modifiers": [],
            "name": "pdf",
            "references": [],
            "type": "PageReference"
        },
        {
            "annotations": [],
            "location": {
                "column": 14,
                "line": 233
            },
            "modifiers": [],
            "name": "body",
            "references": [],
            "type": "Blob"
        },
        {
            "annotations": [],
            "location": {
                "column": 12,
                "line": 234
            },
            "modifiers": [],
            "name": "rid",
            "references": [],
            "type": "Id"
        },
        {
            "annotations": [],
            "location": {
                "column": 25,
                "line": 236
            },
            "modifiers": [],
            "name": "confirmation",
            "references": [],
            "type": "Confirmation__c"
        },
        {
            "annotations": [],
            "location": {
                "column": 16,
                "line": 240
            },
            "modifiers": [],
            "name": "attachName",
            "references": [],
            "type": "String"
        },
        {
            "annotations": [],
            "location": {
                "column": 23,
                "line": 254
            },
            "modifiers": [],
            "name": "recordpage",
            "references": [],
            "type": "PageReference"
        },
        {
            "annotations": [],
            "location": {
                "column": 16,
                "line": 259
            },
            "modifiers": [],
            "name": "recordId",
            "references": [],
            "type": "String"
        },
        {
            "annotations": [],
            "location": {
                "column": 20,
                "line": 261
            },
            "modifiers": [],
            "name": "attach",
            "references": [],
            "type": "Attachment"
        },
        {
            "annotations": [],
            "location": {
                "column": 23,
                "line": 262
            },
            "modifiers": [],
            "name": "pdf",
            "references": [],
            "type": "PageReference"
        },
        {
            "annotations": [],
            "location": {
                "column": 16,
                "line": 265
            },
            "modifiers": [],
            "name": "attachName",
            "references": [],
            "type": "String"
        },
        {
            "annotations": [],
            "location": {
                "column": 14,
                "line": 266
            },
            "modifiers": [],
            "name": "body",
            "references": [],
            "type": "Blob"
        },
        {
            "annotations": [],
            "location": {
                "column": 12,
                "line": 267
            },
            "modifiers": [],
            "name": "rid",
            "references": [],
            "type": "Id"
        },
        {
            "annotations": [],
            "location": {
                "column": 25,
                "line": 269
            },
            "modifiers": [],
            "name": "confirmation",
            "references": [],
            "type": "Confirmation__c"
        },
        {
            "annotations": [],
            "location": {
                "column": 23,
                "line": 291
            },
            "modifiers": [],
            "name": "recordpage",
            "references": [],
            "type": "PageReference"
        },
        {
            "annotations": [],
            "location": {
                "column": 16,
                "line": 296
            },
            "modifiers": [],
            "name": "recordId",
            "references": [],
            "type": "String"
        },
        {
            "annotations": [],
            "location": {
                "column": 20,
                "line": 298
            },
            "modifiers": [],
            "name": "attach",
            "references": [],
            "type": "Attachment"
        },
        {
            "annotations": [],
            "location": {
                "column": 23,
                "line": 299
            },
            "modifiers": [],
            "name": "pdf",
            "references": [],
            "type": "PageReference"
        },
        {
            "annotations": [],
            "location": {
                "column": 12,
                "line": 302
            },
            "modifiers": [],
            "name": "rid",
            "references": [],
            "type": "Id"
        },
        {
            "annotations": [],
            "location": {
                "column": 14,
                "line": 303
            },
            "modifiers": [],
            "name": "body",
            "references": [],
            "type": "Blob"
        },
        {
            "annotations": [],
            "location": {
                "column": 16,
                "line": 304
            },
            "modifiers": [],
            "name": "attachName",
            "references": [],
            "type": "String"
        },
        {
            "annotations": [],
            "location": {
                "column": 23,
                "line": 318
            },
            "modifiers": [],
            "name": "recordpage",
            "references": [],
            "type": "PageReference"
        },
        {
            "annotations": [],
            "location": {
                "column": 71,
                "line": 328
            },
            "modifiers": [],
            "name": "body",
            "references": [],
            "type": "String"
        },
        {
            "annotations": [],
            "location": {
                "column": 20,
                "line": 330
            },
            "modifiers": [],
            "name": "parser",
            "references": [],
            "type": "JSONParser"
        },
        {
            "annotations": [],
            "location": {
                "column": 38,
                "line": 332
            },
            "modifiers": [],
            "name": "lines",
            "references": [],
            "type": "LIST"
        },
        {
            "annotations": [],
            "location": {
                "column": 48,
                "line": 343
            },
            "modifiers": [],
            "name": "line",
            "references": [],
            "type": "ConfirmationProduct__c"
        }
    ]
}