{
    "constructors": [
        {
            "annotations": [],
            "location": {
                "column": 9,
                "line": 54
            },
            "modifiers": [
                "public"
            ],
            "name": "MASTrafficData",
            "parameters": [
                {
                    "name": "informs",
                    "type": "LIST"
                },
                {
                    "name": "inconfirms",
                    "type": "LIST"
                },
                {
                    "name": "inaccounts",
                    "type": "LIST"
                }
            ],
            "references": [],
            "type": null
        }
    ],
    "externalReferences": [],
    "id": "01p3B000000G5eIQAS",
    "innerClasses": [],
    "interfaces": [],
    "key": "01p3B000000G5eIQAS",
    "methods": [
        {
            "annotations": [],
            "location": {
                "column": 20,
                "line": 74
            },
            "modifiers": [
                "public"
            ],
            "name": "isGoodData",
            "parameters": [],
            "references": [],
            "returnType": "Boolean",
            "type": null
        },
        {
            "annotations": [],
            "location": {
                "column": 21,
                "line": 82
            },
            "modifiers": [
                "private"
            ],
            "name": "calcSchoolsNumber",
            "parameters": [],
            "references": [],
            "returnType": "Integer",
            "type": null
        },
        {
            "annotations": [],
            "location": {
                "column": 21,
                "line": 90
            },
            "modifiers": [
                "private"
            ],
            "name": "calcFormsNumber",
            "parameters": [],
            "references": [],
            "returnType": "Integer",
            "type": null
        },
        {
            "annotations": [],
            "location": {
                "column": 21,
                "line": 98
            },
            "modifiers": [
                "private"
            ],
            "name": "calcQuestionNumber",
            "parameters": [],
            "references": [],
            "returnType": "Integer",
            "type": null
        },
        {
            "annotations": [],
            "location": {
                "column": 21,
                "line": 119
            },
            "modifiers": [
                "private"
            ],
            "name": "calcTaxNumber",
            "parameters": [],
            "references": [],
            "returnType": "Integer",
            "type": null
        },
        {
            "annotations": [],
            "location": {
                "column": 21,
                "line": 152
            },
            "modifiers": [
                "private"
            ],
            "name": "calcSalesRepsNumber",
            "parameters": [],
            "references": [],
            "returnType": "Integer",
            "type": null
        },
        {
            "annotations": [],
            "location": {
                "column": 21,
                "line": 177
            },
            "modifiers": [
                "private"
            ],
            "name": "calcNoMagsNumber",
            "parameters": [],
            "references": [],
            "returnType": "Integer",
            "type": null
        },
        {
            "annotations": [],
            "location": {
                "column": 21,
                "line": 198
            },
            "modifiers": [
                "private"
            ],
            "name": "calcHiMagsNumber",
            "parameters": [],
            "references": [],
            "returnType": "Integer",
            "type": null
        }
    ],
    "name": "MASTrafficData",
    "namespace": null,
    "parentClass": "",
    "properties": [
        {
            "annotations": [],
            "location": {
                "column": 26,
                "line": 4
            },
            "modifiers": [
                "public"
            ],
            "name": "forms",
            "references": [],
            "type": "LIST"
        },
        {
            "annotations": [],
            "location": {
                "column": 21,
                "line": 7
            },
            "modifiers": [
                "public"
            ],
            "name": "formIds",
            "references": [],
            "type": "LIST"
        },
        {
            "annotations": [],
            "location": {
                "column": 34,
                "line": 10
            },
            "modifiers": [
                "public"
            ],
            "name": "confirms",
            "references": [],
            "type": "LIST"
        },
        {
            "annotations": [],
            "location": {
                "column": 26,
                "line": 13
            },
            "modifiers": [
                "public"
            ],
            "name": "accounts",
            "references": [],
            "type": "LIST"
        },
        {
            "annotations": [],
            "location": {
                "column": 20,
                "line": 16
            },
            "modifiers": [
                "public"
            ],
            "name": "numSchools",
            "references": [],
            "type": "Integer"
        },
        {
            "annotations": [],
            "location": {
                "column": 20,
                "line": 19
            },
            "modifiers": [
                "public"
            ],
            "name": "numForms",
            "references": [],
            "type": "Integer"
        },
        {
            "annotations": [],
            "location": {
                "column": 20,
                "line": 22
            },
            "modifiers": [
                "public"
            ],
            "name": "numTaxes",
            "references": [],
            "type": "Integer"
        },
        {
            "annotations": [],
            "location": {
                "column": 25,
                "line": 25
            },
            "modifiers": [
                "public"
            ],
            "name": "taxAccounts",
            "references": [],
            "type": "Set"
        },
        {
            "annotations": [],
            "location": {
                "column": 20,
                "line": 28
            },
            "modifiers": [
                "public"
            ],
            "name": "numQuestions",
            "references": [],
            "type": "Integer"
        },
        {
            "annotations": [],
            "location": {
                "column": 25,
                "line": 31
            },
            "modifiers": [
                "public"
            ],
            "name": "questionForms",
            "references": [],
            "type": "Set"
        },
        {
            "annotations": [],
            "location": {
                "column": 20,
                "line": 34
            },
            "modifiers": [
                "public"
            ],
            "name": "numSalesReps",
            "references": [],
            "type": "Integer"
        },
        {
            "annotations": [],
            "location": {
                "column": 33,
                "line": 37
            },
            "modifiers": [
                "public"
            ],
            "name": "saleRepConfirms",
            "references": [],
            "type": "Set"
        },
        {
            "annotations": [],
            "location": {
                "column": 20,
                "line": 40
            },
            "modifiers": [
                "public"
            ],
            "name": "numNoMags",
            "references": [],
            "type": "Integer"
        },
        {
            "annotations": [],
            "location": {
                "column": 25,
                "line": 43
            },
            "modifiers": [
                "public"
            ],
            "name": "noMagsForms",
            "references": [],
            "type": "Set"
        },
        {
            "annotations": [],
            "location": {
                "column": 20,
                "line": 46
            },
            "modifiers": [
                "public"
            ],
            "name": "numHighMags",
            "references": [],
            "type": "Integer"
        },
        {
            "annotations": [],
            "location": {
                "column": 33,
                "line": 49
            },
            "modifiers": [
                "public"
            ],
            "name": "hiMagsConfirms",
            "references": [],
            "type": "Set"
        },
        {
            "annotations": [],
            "location": {
                "column": 20,
                "line": 52
            },
            "modifiers": [
                "public"
            ],
            "name": "goodData",
            "references": [],
            "type": "Boolean"
        }
    ],
    "tableDeclaration": {
        "annotations": [],
        "location": {
            "column": 27,
            "line": 1
        },
        "modifiers": [
            "public",
            "with sharing"
        ],
        "name": "MASTrafficData",
        "references": [],
        "type": "MASTrafficData"
    },
    "variables": [
        {
            "annotations": [],
            "location": {
                "column": 38,
                "line": 54
            },
            "modifiers": [],
            "name": "informs",
            "references": [],
            "type": "LIST"
        },
        {
            "annotations": [],
            "location": {
                "column": 69,
                "line": 54
            },
            "modifiers": [],
            "name": "inconfirms",
            "references": [],
            "type": "LIST"
        },
        {
            "annotations": [],
            "location": {
                "column": 95,
                "line": 54
            },
            "modifiers": [],
            "name": "inaccounts",
            "references": [],
            "type": "LIST"
        },
        {
            "annotations": [],
            "location": {
                "column": 21,
                "line": 70
            },
            "modifiers": [],
            "name": "form",
            "references": [],
            "type": "Form__c"
        },
        {
            "annotations": [],
            "location": {
                "column": 17,
                "line": 100
            },
            "modifiers": [],
            "name": "foundQuestion",
            "references": [],
            "type": "Integer"
        },
        {
            "annotations": [],
            "location": {
                "column": 25,
                "line": 106
            },
            "modifiers": [],
            "name": "form",
            "references": [],
            "type": "Form__c"
        },
        {
            "annotations": [],
            "location": {
                "column": 17,
                "line": 121
            },
            "modifiers": [],
            "name": "foundTax",
            "references": [],
            "type": "Integer"
        },
        {
            "annotations": [],
            "location": {
                "column": 22,
                "line": 123
            },
            "modifiers": [],
            "name": "vars",
            "references": [],
            "type": "Variables__c"
        },
        {
            "annotations": [],
            "location": {
                "column": 25,
                "line": 127
            },
            "modifiers": [],
            "name": "acct",
            "references": [],
            "type": "Account"
        },
        {
            "annotations": [],
            "location": {
                "column": 17,
                "line": 154
            },
            "modifiers": [],
            "name": "foundReps",
            "references": [],
            "type": "Integer"
        },
        {
            "annotations": [],
            "location": {
                "column": 21,
                "line": 158
            },
            "modifiers": [],
            "name": "uniqueReps",
            "references": [],
            "type": "Set"
        },
        {
            "annotations": [],
            "location": {
                "column": 33,
                "line": 161
            },
            "modifiers": [],
            "name": "confirm",
            "references": [],
            "type": "Confirmation__c"
        },
        {
            "annotations": [],
            "location": {
                "column": 17,
                "line": 179
            },
            "modifiers": [],
            "name": "foundNoMag",
            "references": [],
            "type": "Integer"
        },
        {
            "annotations": [],
            "location": {
                "column": 25,
                "line": 185
            },
            "modifiers": [],
            "name": "form",
            "references": [],
            "type": "Form__c"
        },
        {
            "annotations": [],
            "location": {
                "column": 17,
                "line": 200
            },
            "modifiers": [],
            "name": "foundHiMag",
            "references": [],
            "type": "Integer"
        },
        {
            "annotations": [],
            "location": {
                "column": 33,
                "line": 206
            },
            "modifiers": [],
            "name": "confirm",
            "references": [],
            "type": "Confirmation__c"
        },
        {
            "annotations": [],
            "location": {
                "column": 31,
                "line": 208
            },
            "modifiers": [],
            "name": "formsInConfirm",
            "references": [],
            "type": "LIST"
        },
        {
            "annotations": [],
            "location": {
                "column": 29,
                "line": 209
            },
            "modifiers": [],
            "name": "form",
            "references": [],
            "type": "Form__c"
        },
        {
            "annotations": [],
            "location": {
                "column": 29,
                "line": 217
            },
            "modifiers": [],
            "name": "formBMags",
            "references": [],
            "type": "Integer"
        },
        {
            "annotations": [],
            "location": {
                "column": 29,
                "line": 218
            },
            "modifiers": [],
            "name": "formAArtCount",
            "references": [],
            "type": "Integer"
        },
        {
            "annotations": [],
            "location": {
                "column": 33,
                "line": 220
            },
            "modifiers": [],
            "name": "form",
            "references": [],
            "type": "Form__c"
        }
    ]
}