{
    "constructors": [],
    "externalReferences": [],
    "id": "01p3B000000FpbIQAS",
    "innerClasses": [
        {
            "constructors": [],
            "externalReferences": [],
            "id": null,
            "innerClasses": [],
            "interfaces": [],
            "key": null,
            "methods": [],
            "name": "TableLine",
            "namespace": null,
            "parentClass": "",
            "properties": [
                {
                    "annotations": [],
                    "location": {
                        "column": 15,
                        "line": 289
                    },
                    "modifiers": [
                        "public"
                    ],
                    "name": "lineno",
                    "references": [],
                    "type": "Long"
                },
                {
                    "annotations": [],
                    "location": {
                        "column": 17,
                        "line": 290
                    },
                    "modifiers": [
                        "public"
                    ],
                    "name": "suffix",
                    "references": [],
                    "type": "String"
                },
                {
                    "annotations": [],
                    "location": {
                        "column": 17,
                        "line": 291
                    },
                    "modifiers": [
                        "public"
                    ],
                    "name": "hv",
                    "references": [],
                    "type": "String"
                },
                {
                    "annotations": [],
                    "location": {
                        "column": 17,
                        "line": 292
                    },
                    "modifiers": [
                        "public"
                    ],
                    "name": "pmt",
                    "references": [],
                    "type": "String"
                },
                {
                    "annotations": [],
                    "location": {
                        "column": 17,
                        "line": 293
                    },
                    "modifiers": [
                        "public"
                    ],
                    "name": "code",
                    "references": [],
                    "type": "String"
                },
                {
                    "annotations": [],
                    "location": {
                        "column": 17,
                        "line": 294
                    },
                    "modifiers": [
                        "public"
                    ],
                    "name": "description",
                    "references": [],
                    "type": "String"
                },
                {
                    "annotations": [],
                    "location": {
                        "column": 18,
                        "line": 295
                    },
                    "modifiers": [
                        "public"
                    ],
                    "name": "qty",
                    "references": [],
                    "type": "Integer"
                },
                {
                    "annotations": [],
                    "location": {
                        "column": 17,
                        "line": 296
                    },
                    "modifiers": [
                        "public"
                    ],
                    "name": "price",
                    "references": [],
                    "type": "Double"
                },
                {
                    "annotations": [],
                    "location": {
                        "column": 17,
                        "line": 297
                    },
                    "modifiers": [
                        "public"
                    ],
                    "name": "total",
                    "references": [],
                    "type": "Double"
                },
                {
                    "annotations": [],
                    "location": {
                        "column": 17,
                        "line": 298
                    },
                    "modifiers": [
                        "public"
                    ],
                    "name": "wholesale",
                    "references": [],
                    "type": "Double"
                },
                {
                    "annotations": [],
                    "location": {
                        "column": 17,
                        "line": 299
                    },
                    "modifiers": [
                        "public"
                    ],
                    "name": "seasonid",
                    "references": [],
                    "type": "String"
                }
            ],
            "tableDeclaration": {
                "annotations": [],
                "location": {
                    "column": 18,
                    "line": 287
                },
                "modifiers": [
                    "public"
                ],
                "name": "TableLine",
                "references": [],
                "type": "TableLine"
            },
            "variables": []
        }
    ],
    "interfaces": [],
    "key": "01p3B000000FpbIQAS",
    "methods": [
        {
            "annotations": [],
            "location": {
                "column": 32,
                "line": 4
            },
            "modifiers": [
                "static",
                "public"
            ],
            "name": "getConfirmation",
            "parameters": [
                {
                    "name": "recordId",
                    "type": "Id"
                }
            ],
            "references": [],
            "returnType": "Confirmation__c",
            "type": null
        },
        {
            "annotations": [],
            "location": {
                "column": 30,
                "line": 12
            },
            "modifiers": [
                "static",
                "public"
            ],
            "name": "getForms",
            "parameters": [
                {
                    "name": "recordId",
                    "type": "Id"
                }
            ],
            "references": [],
            "returnType": "LIST",
            "type": null
        },
        {
            "annotations": [],
            "location": {
                "column": 33,
                "line": 21
            },
            "modifiers": [
                "static",
                "public"
            ],
            "name": "getOrdersForForm",
            "parameters": [
                {
                    "name": "formId",
                    "type": "Id"
                }
            ],
            "references": [],
            "returnType": "LIST",
            "type": null
        },
        {
            "annotations": [],
            "location": {
                "column": 45,
                "line": 71
            },
            "modifiers": [
                "static",
                "public"
            ],
            "name": "getProductsForConfirmation",
            "parameters": [
                {
                    "name": "confId",
                    "type": "Id"
                }
            ],
            "references": [],
            "returnType": "LIST",
            "type": null
        },
        {
            "annotations": [],
            "location": {
                "column": 21,
                "line": 121
            },
            "modifiers": [
                "static",
                "public"
            ],
            "name": "saveOrders",
            "parameters": [
                {
                    "name": "form",
                    "type": "Form__c"
                },
                {
                    "name": "inOrders",
                    "type": "String"
                },
                {
                    "name": "orderCount",
                    "type": "String"
                }
            ],
            "references": [],
            "returnType": "void",
            "type": null
        },
        {
            "annotations": [],
            "location": {
                "column": 33,
                "line": 237
            },
            "modifiers": [
                "static",
                "public"
            ],
            "name": "parseJSONLinesBody",
            "parameters": [
                {
                    "name": "body",
                    "type": "String"
                }
            ],
            "references": [],
            "returnType": "LIST",
            "type": null
        },
        {
            "annotations": [],
            "location": {
                "column": 48,
                "line": 262
            },
            "modifiers": [
                "static",
                "public"
            ],
            "name": "parseJSONCPBody",
            "parameters": [
                {
                    "name": "body",
                    "type": "String"
                }
            ],
            "references": [],
            "returnType": "LIST",
            "type": null
        }
    ],
    "name": "OrderEntryComponentApexController",
    "namespace": null,
    "parentClass": "",
    "properties": [],
    "tableDeclaration": {
        "annotations": [],
        "location": {
            "column": 27,
            "line": 1
        },
        "modifiers": [
            "public",
            "with sharing"
        ],
        "name": "OrderEntryComponentApexController",
        "references": [],
        "type": "OrderEntryComponentApexController"
    },
    "variables": [
        {
            "annotations": [],
            "location": {
                "column": 51,
                "line": 4
            },
            "modifiers": [],
            "name": "recordId",
            "references": [],
            "type": "Id"
        },
        {
            "annotations": [],
            "location": {
                "column": 19,
                "line": 6
            },
            "modifiers": [],
            "name": "confirm",
            "references": [],
            "type": "Confirmation__c"
        },
        {
            "annotations": [],
            "location": {
                "column": 42,
                "line": 12
            },
            "modifiers": [],
            "name": "recordId",
            "references": [],
            "type": "Id"
        },
        {
            "annotations": [],
            "location": {
                "column": 17,
                "line": 14
            },
            "modifiers": [],
            "name": "forms",
            "references": [],
            "type": "LIST"
        },
        {
            "annotations": [],
            "location": {
                "column": 53,
                "line": 21
            },
            "modifiers": [],
            "name": "formId",
            "references": [],
            "type": "Id"
        },
        {
            "annotations": [],
            "location": {
                "column": 16,
                "line": 23
            },
            "modifiers": [],
            "name": "var",
            "references": [],
            "type": "Variables__c"
        },
        {
            "annotations": [],
            "location": {
                "column": 8,
                "line": 25
            },
            "modifiers": [],
            "name": "h",
            "references": [],
            "type": "Http"
        },
        {
            "annotations": [],
            "location": {
                "column": 21,
                "line": 26
            },
            "modifiers": [],
            "name": "req",
            "references": [],
            "type": "HttpRequest"
        },
        {
            "annotations": [],
            "location": {
                "column": 16,
                "line": 31
            },
            "modifiers": [],
            "name": "username",
            "references": [],
            "type": "String"
        },
        {
            "annotations": [],
            "location": {
                "column": 16,
                "line": 32
            },
            "modifiers": [],
            "name": "password",
            "references": [],
            "type": "String"
        },
        {
            "annotations": [],
            "location": {
                "column": 14,
                "line": 34
            },
            "modifiers": [],
            "name": "headerValue",
            "references": [],
            "type": "Blob"
        },
        {
            "annotations": [],
            "location": {
                "column": 13,
                "line": 35
            },
            "modifiers": [],
            "name": "authorizationHeader",
            "references": [],
            "type": "String"
        },
        {
            "annotations": [],
            "location": {
                "column": 22,
                "line": 38
            },
            "modifiers": [],
            "name": "res",
            "references": [],
            "type": "HttpResponse"
        },
        {
            "annotations": [],
            "location": {
                "column": 37,
                "line": 42
            },
            "modifiers": [],
            "name": "mock",
            "references": [],
            "type": "TestDatabaseCalloutMock"
        },
        {
            "annotations": [],
            "location": {
                "column": 30,
                "line": 59
            },
            "modifiers": [],
            "name": "lines",
            "references": [],
            "type": "LIST"
        },
        {
            "annotations": [],
            "location": {
                "column": 75,
                "line": 71
            },
            "modifiers": [],
            "name": "confId",
            "references": [],
            "type": "Id"
        },
        {
            "annotations": [],
            "location": {
                "column": 16,
                "line": 73
            },
            "modifiers": [],
            "name": "var",
            "references": [],
            "type": "Variables__c"
        },
        {
            "annotations": [],
            "location": {
                "column": 8,
                "line": 75
            },
            "modifiers": [],
            "name": "h",
            "references": [],
            "type": "Http"
        },
        {
            "annotations": [],
            "location": {
                "column": 21,
                "line": 76
            },
            "modifiers": [],
            "name": "req",
            "references": [],
            "type": "HttpRequest"
        },
        {
            "annotations": [],
            "location": {
                "column": 16,
                "line": 81
            },
            "modifiers": [],
            "name": "username",
            "references": [],
            "type": "String"
        },
        {
            "annotations": [],
            "location": {
                "column": 16,
                "line": 82
            },
            "modifiers": [],
            "name": "password",
            "references": [],
            "type": "String"
        },
        {
            "annotations": [],
            "location": {
                "column": 14,
                "line": 84
            },
            "modifiers": [],
            "name": "headerValue",
            "references": [],
            "type": "Blob"
        },
        {
            "annotations": [],
            "location": {
                "column": 13,
                "line": 85
            },
            "modifiers": [],
            "name": "authorizationHeader",
            "references": [],
            "type": "String"
        },
        {
            "annotations": [],
            "location": {
                "column": 22,
                "line": 88
            },
            "modifiers": [],
            "name": "res",
            "references": [],
            "type": "HttpResponse"
        },
        {
            "annotations": [],
            "location": {
                "column": 37,
                "line": 92
            },
            "modifiers": [],
            "name": "mock",
            "references": [],
            "type": "TestDatabaseCalloutMock"
        },
        {
            "annotations": [],
            "location": {
                "column": 42,
                "line": 109
            },
            "modifiers": [],
            "name": "lines",
            "references": [],
            "type": "LIST"
        },
        {
            "annotations": [],
            "location": {
                "column": 40,
                "line": 121
            },
            "modifiers": [],
            "name": "form",
            "references": [],
            "type": "Form__c"
        },
        {
            "annotations": [],
            "location": {
                "column": 53,
                "line": 121
            },
            "modifiers": [],
            "name": "inOrders",
            "references": [],
            "type": "String"
        },
        {
            "annotations": [],
            "location": {
                "column": 70,
                "line": 121
            },
            "modifiers": [],
            "name": "orderCount",
            "references": [],
            "type": "String"
        },
        {
            "annotations": [],
            "location": {
                "column": 11,
                "line": 125
            },
            "modifiers": [],
            "name": "orderValueWholesale",
            "references": [],
            "type": "Double"
        },
        {
            "annotations": [],
            "location": {
                "column": 11,
                "line": 126
            },
            "modifiers": [],
            "name": "orderValueRetail",
            "references": [],
            "type": "Double"
        },
        {
            "annotations": [],
            "location": {
                "column": 21,
                "line": 130
            },
            "modifiers": [],
            "name": "tableLines",
            "references": [],
            "type": "LIST"
        },
        {
            "annotations": [],
            "location": {
                "column": 23,
                "line": 134
            },
            "modifiers": [],
            "name": "orderLines",
            "references": [],
            "type": "LIST"
        },
        {
            "annotations": [],
            "location": {
                "column": 20,
                "line": 136
            },
            "modifiers": [],
            "name": "line",
            "references": [],
            "type": "TableLine"
        },
        {
            "annotations": [],
            "location": {
                "column": 18,
                "line": 138
            },
            "modifiers": [],
            "name": "order",
            "references": [],
            "type": "Orderlines"
        },
        {
            "annotations": [],
            "location": {
                "column": 19,
                "line": 170
            },
            "modifiers": [],
            "name": "var",
            "references": [],
            "type": "Variables__c"
        },
        {
            "annotations": [],
            "location": {
                "column": 11,
                "line": 172
            },
            "modifiers": [],
            "name": "h",
            "references": [],
            "type": "Http"
        },
        {
            "annotations": [],
            "location": {
                "column": 24,
                "line": 173
            },
            "modifiers": [],
            "name": "req",
            "references": [],
            "type": "HttpRequest"
        },
        {
            "annotations": [],
            "location": {
                "column": 19,
                "line": 179
            },
            "modifiers": [],
            "name": "username",
            "references": [],
            "type": "String"
        },
        {
            "annotations": [],
            "location": {
                "column": 19,
                "line": 180
            },
            "modifiers": [],
            "name": "password",
            "references": [],
            "type": "String"
        },
        {
            "annotations": [],
            "location": {
                "column": 17,
                "line": 182
            },
            "modifiers": [],
            "name": "headerValue",
            "references": [],
            "type": "Blob"
        },
        {
            "annotations": [],
            "location": {
                "column": 16,
                "line": 183
            },
            "modifiers": [],
            "name": "authorizationHeader",
            "references": [],
            "type": "String"
        },
        {
            "annotations": [],
            "location": {
                "column": 25,
                "line": 188
            },
            "modifiers": [],
            "name": "res",
            "references": [],
            "type": "HttpResponse"
        },
        {
            "annotations": [],
            "location": {
                "column": 40,
                "line": 192
            },
            "modifiers": [],
            "name": "mock",
            "references": [],
            "type": "TestDatabaseCalloutMock"
        },
        {
            "annotations": [],
            "location": {
                "column": 12,
                "line": 219
            },
            "modifiers": [],
            "name": "dbForm",
            "references": [],
            "type": "Form__c"
        },
        {
            "annotations": [],
            "location": {
                "column": 59,
                "line": 237
            },
            "modifiers": [],
            "name": "body",
            "references": [],
            "type": "String"
        },
        {
            "annotations": [],
            "location": {
                "column": 17,
                "line": 239
            },
            "modifiers": [],
            "name": "parser",
            "references": [],
            "type": "JSONParser"
        },
        {
            "annotations": [],
            "location": {
                "column": 23,
                "line": 241
            },
            "modifiers": [],
            "name": "lines",
            "references": [],
            "type": "LIST"
        },
        {
            "annotations": [],
            "location": {
                "column": 30,
                "line": 252
            },
            "modifiers": [],
            "name": "line",
            "references": [],
            "type": "Orderlines"
        },
        {
            "annotations": [],
            "location": {
                "column": 71,
                "line": 262
            },
            "modifiers": [],
            "name": "body",
            "references": [],
            "type": "String"
        },
        {
            "annotations": [],
            "location": {
                "column": 17,
                "line": 264
            },
            "modifiers": [],
            "name": "parser",
            "references": [],
            "type": "JSONParser"
        },
        {
            "annotations": [],
            "location": {
                "column": 35,
                "line": 266
            },
            "modifiers": [],
            "name": "lines",
            "references": [],
            "type": "LIST"
        },
        {
            "annotations": [],
            "location": {
                "column": 42,
                "line": 277
            },
            "modifiers": [],
            "name": "line",
            "references": [],
            "type": "ConfirmationProduct__c"
        }
    ]
}