{
    "constructors": [],
    "externalReferences": [],
    "id": "01p3B000000BuvkQAC",
    "innerClasses": [],
    "interfaces": [],
    "key": "01p3B000000BuvkQAC",
    "methods": [
        {
            "annotations": [],
            "location": {
                "column": 14,
                "line": 9
            },
            "modifiers": [
                "private",
                "static"
            ],
            "name": "setup",
            "parameters": [],
            "references": [],
            "returnType": "void",
            "type": null
        },
        {
            "annotations": [
                {
                    "name": "IsTest"
                }
            ],
            "location": {
                "column": 14,
                "line": 48
            },
            "modifiers": [
                "private",
                "static",
                "testMethod"
            ],
            "name": "testIt",
            "parameters": [],
            "references": [],
            "returnType": "void",
            "type": null
        }
    ],
    "name": "TestWIPReportController",
    "namespace": null,
    "parentClass": "",
    "properties": [
        {
            "annotations": [],
            "location": {
                "column": 25,
                "line": 4
            },
            "modifiers": [
                "private",
                "static"
            ],
            "name": "confirm",
            "references": [],
            "type": "Confirmation__c"
        },
        {
            "annotations": [],
            "location": {
                "column": 17,
                "line": 5
            },
            "modifiers": [
                "private",
                "static"
            ],
            "name": "form",
            "references": [],
            "type": "Form__c"
        },
        {
            "annotations": [],
            "location": {
                "column": 32,
                "line": 6
            },
            "modifiers": [
                "private",
                "static"
            ],
            "name": "confirmProd",
            "references": [],
            "type": "ConfirmationProduct__c"
        },
        {
            "annotations": [],
            "location": {
                "column": 19,
                "line": 7
            },
            "modifiers": [
                "private",
                "static"
            ],
            "name": "season",
            "references": [],
            "type": "Season__c"
        }
    ],
    "tableDeclaration": {
        "annotations": [
            {
                "name": "IsTest"
            }
        ],
        "location": {
            "column": 15,
            "line": 2
        },
        "modifiers": [
            "private",
            "testMethod"
        ],
        "name": "TestWIPReportController",
        "references": [],
        "type": "TestWIPReportController"
    },
    "variables": [
        {
            "annotations": [],
            "location": {
                "column": 11,
                "line": 14
            },
            "modifiers": [],
            "name": "acct",
            "references": [],
            "type": "Account"
        },
        {
            "annotations": [],
            "location": {
                "column": 11,
                "line": 17
            },
            "modifiers": [],
            "name": "ct",
            "references": [],
            "type": "Contact"
        },
        {
            "annotations": [],
            "location": {
                "column": 11,
                "line": 26
            },
            "modifiers": [],
            "name": "formA",
            "references": [],
            "type": "Form__c"
        },
        {
            "annotations": [],
            "location": {
                "column": 16,
                "line": 37
            },
            "modifiers": [],
            "name": "prod",
            "references": [],
            "type": "OWProduct__c"
        },
        {
            "annotations": [],
            "location": {
                "column": 20,
                "line": 40
            },
            "modifiers": [],
            "name": "sp",
            "references": [],
            "type": "SeasonProduct__c"
        },
        {
            "annotations": [],
            "location": {
                "column": 23,
                "line": 56
            },
            "modifiers": [],
            "name": "cont",
            "references": [],
            "type": "WIPReportController"
        }
    ]
}