{
    "constructors": [],
    "externalReferences": [],
    "id": "01p3B000000FrDXQA0",
    "innerClasses": [],
    "interfaces": [],
    "key": "01p3B000000FrDXQA0",
    "methods": [
        {
            "annotations": [],
            "location": {
                "column": 17,
                "line": 17
            },
            "modifiers": [
                "private",
                "static"
            ],
            "name": "setup",
            "parameters": [],
            "references": [],
            "returnType": "void",
            "type": null
        },
        {
            "annotations": [
                {
                    "name": "IsTest"
                }
            ],
            "location": {
                "column": 28,
                "line": 55
            },
            "modifiers": [
                "private",
                "static",
                "testMethod"
            ],
            "name": "testGetInfo",
            "parameters": [],
            "references": [],
            "returnType": "void",
            "type": null
        },
        {
            "annotations": [
                {
                    "name": "IsTest"
                }
            ],
            "location": {
                "column": 28,
                "line": 65
            },
            "modifiers": [
                "private",
                "static",
                "testMethod"
            ],
            "name": "testGetNonNullPhoneNumbers",
            "parameters": [],
            "references": [],
            "returnType": "void",
            "type": null
        },
        {
            "annotations": [
                {
                    "name": "IsTest"
                }
            ],
            "location": {
                "column": 28,
                "line": 83
            },
            "modifiers": [
                "private",
                "static",
                "testMethod"
            ],
            "name": "testGetNullPhoneNumbers",
            "parameters": [],
            "references": [],
            "returnType": "void",
            "type": null
        },
        {
            "annotations": [
                {
                    "name": "IsTest"
                }
            ],
            "location": {
                "column": 28,
                "line": 116
            },
            "modifiers": [
                "private",
                "static",
                "testMethod"
            ],
            "name": "testGetConfirmationProducts",
            "parameters": [],
            "references": [],
            "returnType": "void",
            "type": null
        },
        {
            "annotations": [
                {
                    "name": "IsTest"
                }
            ],
            "location": {
                "column": 28,
                "line": 127
            },
            "modifiers": [
                "private",
                "static",
                "testMethod"
            ],
            "name": "testGetConfirmationContacts",
            "parameters": [],
            "references": [],
            "returnType": "void",
            "type": null
        },
        {
            "annotations": [
                {
                    "name": "IsTest"
                }
            ],
            "location": {
                "column": 28,
                "line": 146
            },
            "modifiers": [
                "private",
                "static",
                "testMethod"
            ],
            "name": "testGetDFL",
            "parameters": [],
            "references": [],
            "returnType": "void",
            "type": null
        },
        {
            "annotations": [
                {
                    "name": "IsTest"
                }
            ],
            "location": {
                "column": 28,
                "line": 212
            },
            "modifiers": [
                "private",
                "static",
                "testMethod"
            ],
            "name": "testSaveAsPDF",
            "parameters": [],
            "references": [],
            "returnType": "void",
            "type": null
        }
    ],
    "name": "TestConfirmationDocumentExtension",
    "namespace": null,
    "parentClass": "",
    "properties": [
        {
            "annotations": [],
            "location": {
                "column": 20,
                "line": 9
            },
            "modifiers": [
                "private",
                "static"
            ],
            "name": "acct",
            "references": [],
            "type": "Account"
        },
        {
            "annotations": [],
            "location": {
                "column": 20,
                "line": 10
            },
            "modifiers": [
                "private",
                "static"
            ],
            "name": "acct2",
            "references": [],
            "type": "Account"
        },
        {
            "annotations": [],
            "location": {
                "column": 20,
                "line": 11
            },
            "modifiers": [
                "private",
                "static"
            ],
            "name": "rep",
            "references": [],
            "type": "Contact"
        },
        {
            "annotations": [],
            "location": {
                "column": 22,
                "line": 12
            },
            "modifiers": [
                "private",
                "static"
            ],
            "name": "season",
            "references": [],
            "type": "Season__c"
        },
        {
            "annotations": [],
            "location": {
                "column": 29,
                "line": 13
            },
            "modifiers": [
                "private",
                "static"
            ],
            "name": "seasonproduct",
            "references": [],
            "type": "SeasonProduct__c"
        },
        {
            "annotations": [],
            "location": {
                "column": 28,
                "line": 14
            },
            "modifiers": [
                "private",
                "static"
            ],
            "name": "conf",
            "references": [],
            "type": "Confirmation__c"
        },
        {
            "annotations": [],
            "location": {
                "column": 28,
                "line": 15
            },
            "modifiers": [
                "private",
                "static"
            ],
            "name": "conf2",
            "references": [],
            "type": "Confirmation__c"
        }
    ],
    "tableDeclaration": {
        "annotations": [
            {
                "name": "IsTest"
            }
        ],
        "location": {
            "column": 15,
            "line": 2
        },
        "modifiers": [
            "private",
            "testMethod"
        ],
        "name": "TestConfirmationDocumentExtension",
        "references": [],
        "type": "TestConfirmationDocumentExtension"
    },
    "variables": [
        {
            "annotations": [],
            "location": {
                "column": 22,
                "line": 20
            },
            "modifiers": [],
            "name": "var",
            "references": [],
            "type": "Variables__c"
        },
        {
            "annotations": [],
            "location": {
                "column": 20,
                "line": 33
            },
            "modifiers": [],
            "name": "recordtype",
            "references": [],
            "type": "RecordType"
        },
        {
            "annotations": [],
            "location": {
                "column": 38,
                "line": 58
            },
            "modifiers": [],
            "name": "sc",
            "references": [],
            "type": "StandardController"
        },
        {
            "annotations": [],
            "location": {
                "column": 39,
                "line": 59
            },
            "modifiers": [],
            "name": "confdoc",
            "references": [],
            "type": "ConfirmationDocumentExtension"
        },
        {
            "annotations": [],
            "location": {
                "column": 25,
                "line": 61
            },
            "modifiers": [],
            "name": "test",
            "references": [],
            "type": "Confirmation__c"
        },
        {
            "annotations": [],
            "location": {
                "column": 38,
                "line": 68
            },
            "modifiers": [],
            "name": "sc",
            "references": [],
            "type": "StandardController"
        },
        {
            "annotations": [],
            "location": {
                "column": 39,
                "line": 69
            },
            "modifiers": [],
            "name": "confdoc",
            "references": [],
            "type": "ConfirmationDocumentExtension"
        },
        {
            "annotations": [],
            "location": {
                "column": 16,
                "line": 73
            },
            "modifiers": [],
            "name": "testSC",
            "references": [],
            "type": "String"
        },
        {
            "annotations": [],
            "location": {
                "column": 16,
                "line": 76
            },
            "modifiers": [],
            "name": "testFA",
            "references": [],
            "type": "String"
        },
        {
            "annotations": [],
            "location": {
                "column": 16,
                "line": 79
            },
            "modifiers": [],
            "name": "testRE",
            "references": [],
            "type": "String"
        },
        {
            "annotations": [],
            "location": {
                "column": 38,
                "line": 86
            },
            "modifiers": [],
            "name": "sc",
            "references": [],
            "type": "StandardController"
        },
        {
            "annotations": [],
            "location": {
                "column": 39,
                "line": 87
            },
            "modifiers": [],
            "name": "confdoc",
            "references": [],
            "type": "ConfirmationDocumentExtension"
        },
        {
            "annotations": [],
            "location": {
                "column": 16,
                "line": 91
            },
            "modifiers": [],
            "name": "testSC",
            "references": [],
            "type": "String"
        },
        {
            "annotations": [],
            "location": {
                "column": 16,
                "line": 94
            },
            "modifiers": [],
            "name": "testFA",
            "references": [],
            "type": "String"
        },
        {
            "annotations": [],
            "location": {
                "column": 16,
                "line": 97
            },
            "modifiers": [],
            "name": "testRE",
            "references": [],
            "type": "String"
        },
        {
            "annotations": [],
            "location": {
                "column": 16,
                "line": 100
            },
            "modifiers": [],
            "name": "testDFL",
            "references": [],
            "type": "String"
        },
        {
            "annotations": [],
            "location": {
                "column": 16,
                "line": 103
            },
            "modifiers": [],
            "name": "testCO",
            "references": [],
            "type": "String"
        },
        {
            "annotations": [],
            "location": {
                "column": 16,
                "line": 106
            },
            "modifiers": [],
            "name": "testCO2",
            "references": [],
            "type": "String"
        },
        {
            "annotations": [],
            "location": {
                "column": 16,
                "line": 109
            },
            "modifiers": [],
            "name": "testCOM",
            "references": [],
            "type": "String"
        },
        {
            "annotations": [],
            "location": {
                "column": 16,
                "line": 112
            },
            "modifiers": [],
            "name": "testART",
            "references": [],
            "type": "String"
        },
        {
            "annotations": [],
            "location": {
                "column": 38,
                "line": 119
            },
            "modifiers": [],
            "name": "sc",
            "references": [],
            "type": "StandardController"
        },
        {
            "annotations": [],
            "location": {
                "column": 39,
                "line": 120
            },
            "modifiers": [],
            "name": "confdoc",
            "references": [],
            "type": "ConfirmationDocumentExtension"
        },
        {
            "annotations": [],
            "location": {
                "column": 38,
                "line": 122
            },
            "modifiers": [],
            "name": "confirmationproducts",
            "references": [],
            "type": "LIST"
        },
        {
            "annotations": [],
            "location": {
                "column": 17,
                "line": 130
            },
            "modifiers": [],
            "name": "contact",
            "references": [],
            "type": "Contact"
        },
        {
            "annotations": [],
            "location": {
                "column": 32,
                "line": 132
            },
            "modifiers": [],
            "name": "ccon",
            "references": [],
            "type": "ConfirmationContact__c"
        },
        {
            "annotations": [],
            "location": {
                "column": 38,
                "line": 138
            },
            "modifiers": [],
            "name": "sc",
            "references": [],
            "type": "StandardController"
        },
        {
            "annotations": [],
            "location": {
                "column": 39,
                "line": 139
            },
            "modifiers": [],
            "name": "confdoc",
            "references": [],
            "type": "ConfirmationDocumentExtension"
        },
        {
            "annotations": [],
            "location": {
                "column": 38,
                "line": 141
            },
            "modifiers": [],
            "name": "cconList",
            "references": [],
            "type": "LIST"
        },
        {
            "annotations": [],
            "location": {
                "column": 17,
                "line": 149
            },
            "modifiers": [],
            "name": "contact",
            "references": [],
            "type": "Contact"
        },
        {
            "annotations": [],
            "location": {
                "column": 32,
                "line": 151
            },
            "modifiers": [],
            "name": "ccon",
            "references": [],
            "type": "ConfirmationContact__c"
        },
        {
            "annotations": [],
            "location": {
                "column": 17,
                "line": 157
            },
            "modifiers": [],
            "name": "contact2",
            "references": [],
            "type": "Contact"
        },
        {
            "annotations": [],
            "location": {
                "column": 32,
                "line": 159
            },
            "modifiers": [],
            "name": "ccon2",
            "references": [],
            "type": "ConfirmationContact__c"
        },
        {
            "annotations": [],
            "location": {
                "column": 17,
                "line": 165
            },
            "modifiers": [],
            "name": "contact3",
            "references": [],
            "type": "Contact"
        },
        {
            "annotations": [],
            "location": {
                "column": 32,
                "line": 167
            },
            "modifiers": [],
            "name": "ccon3",
            "references": [],
            "type": "ConfirmationContact__c"
        },
        {
            "annotations": [],
            "location": {
                "column": 17,
                "line": 173
            },
            "modifiers": [],
            "name": "contact4",
            "references": [],
            "type": "Contact"
        },
        {
            "annotations": [],
            "location": {
                "column": 32,
                "line": 175
            },
            "modifiers": [],
            "name": "ccon4",
            "references": [],
            "type": "ConfirmationContact__c"
        },
        {
            "annotations": [],
            "location": {
                "column": 38,
                "line": 181
            },
            "modifiers": [],
            "name": "sc",
            "references": [],
            "type": "StandardController"
        },
        {
            "annotations": [],
            "location": {
                "column": 39,
                "line": 182
            },
            "modifiers": [],
            "name": "confdoc",
            "references": [],
            "type": "ConfirmationDocumentExtension"
        },
        {
            "annotations": [],
            "location": {
                "column": 17,
                "line": 184
            },
            "modifiers": [],
            "name": "dfl",
            "references": [],
            "type": "Contact"
        },
        {
            "annotations": [],
            "location": {
                "column": 17,
                "line": 187
            },
            "modifiers": [],
            "name": "coord",
            "references": [],
            "type": "Contact"
        },
        {
            "annotations": [],
            "location": {
                "column": 17,
                "line": 190
            },
            "modifiers": [],
            "name": "coord2",
            "references": [],
            "type": "Contact"
        },
        {
            "annotations": [],
            "location": {
                "column": 17,
                "line": 193
            },
            "modifiers": [],
            "name": "art",
            "references": [],
            "type": "Contact"
        },
        {
            "annotations": [],
            "location": {
                "column": 16,
                "line": 196
            },
            "modifiers": [],
            "name": "testDFL",
            "references": [],
            "type": "String"
        },
        {
            "annotations": [],
            "location": {
                "column": 16,
                "line": 199
            },
            "modifiers": [],
            "name": "testCO",
            "references": [],
            "type": "String"
        },
        {
            "annotations": [],
            "location": {
                "column": 16,
                "line": 202
            },
            "modifiers": [],
            "name": "testCO2",
            "references": [],
            "type": "String"
        },
        {
            "annotations": [],
            "location": {
                "column": 16,
                "line": 205
            },
            "modifiers": [],
            "name": "testCOM",
            "references": [],
            "type": "String"
        },
        {
            "annotations": [],
            "location": {
                "column": 16,
                "line": 208
            },
            "modifiers": [],
            "name": "testART",
            "references": [],
            "type": "String"
        },
        {
            "annotations": [],
            "location": {
                "column": 38,
                "line": 216
            },
            "modifiers": [],
            "name": "sc",
            "references": [],
            "type": "StandardController"
        },
        {
            "annotations": [],
            "location": {
                "column": 39,
                "line": 217
            },
            "modifiers": [],
            "name": "confdoc",
            "references": [],
            "type": "ConfirmationDocumentExtension"
        },
        {
            "annotations": [],
            "location": {
                "column": 16,
                "line": 219
            },
            "modifiers": [],
            "name": "test",
            "references": [],
            "type": "String"
        },
        {
            "annotations": [],
            "location": {
                "column": 26,
                "line": 222
            },
            "modifiers": [],
            "name": "attachments",
            "references": [],
            "type": "LIST"
        }
    ]
}