{
    "constructors": [],
    "externalReferences": [],
    "id": "01p3B000000BwKMQA0",
    "innerClasses": [],
    "interfaces": [],
    "key": "01p3B000000BwKMQA0",
    "methods": [
        {
            "annotations": [],
            "location": {
                "column": 14,
                "line": 27
            },
            "modifiers": [
                "private",
                "static"
            ],
            "name": "setup",
            "parameters": [],
            "references": [],
            "returnType": "void",
            "type": null
        },
        {
            "annotations": [
                {
                    "name": "IsTest"
                }
            ],
            "location": {
                "column": 25,
                "line": 144
            },
            "modifiers": [
                "private",
                "static",
                "testMethod"
            ],
            "name": "testSeasonConfirmations",
            "parameters": [],
            "references": [],
            "returnType": "void",
            "type": null
        },
        {
            "annotations": [
                {
                    "name": "IsTest"
                }
            ],
            "location": {
                "column": 25,
                "line": 155
            },
            "modifiers": [
                "private",
                "static",
                "testMethod"
            ],
            "name": "testSeasonForms",
            "parameters": [],
            "references": [],
            "returnType": "void",
            "type": null
        },
        {
            "annotations": [
                {
                    "name": "IsTest"
                }
            ],
            "location": {
                "column": 25,
                "line": 166
            },
            "modifiers": [
                "private",
                "static",
                "testMethod"
            ],
            "name": "testSchoolCount",
            "parameters": [],
            "references": [],
            "returnType": "void",
            "type": null
        },
        {
            "annotations": [
                {
                    "name": "IsTest"
                }
            ],
            "location": {
                "column": 28,
                "line": 182
            },
            "modifiers": [
                "private",
                "static",
                "testMethod"
            ],
            "name": "testEstimatedPopulations",
            "parameters": [],
            "references": [],
            "returnType": "void",
            "type": null
        },
        {
            "annotations": [
                {
                    "name": "IsTest"
                }
            ],
            "location": {
                "column": 28,
                "line": 197
            },
            "modifiers": [
                "private",
                "static",
                "testMethod"
            ],
            "name": "testActualPopulation",
            "parameters": [],
            "references": [],
            "returnType": "void",
            "type": null
        },
        {
            "annotations": [
                {
                    "name": "IsTest"
                }
            ],
            "location": {
                "column": 28,
                "line": 212
            },
            "modifiers": [
                "private",
                "static",
                "testMethod"
            ],
            "name": "testTotalOrdered",
            "parameters": [],
            "references": [],
            "returnType": "void",
            "type": null
        },
        {
            "annotations": [
                {
                    "name": "IsTest"
                }
            ],
            "location": {
                "column": 28,
                "line": 227
            },
            "modifiers": [
                "private",
                "static",
                "testMethod"
            ],
            "name": "testGetPerCap",
            "parameters": [],
            "references": [],
            "returnType": "void",
            "type": null
        },
        {
            "annotations": [
                {
                    "name": "IsTest"
                }
            ],
            "location": {
                "column": 28,
                "line": 248
            },
            "modifiers": [
                "private",
                "static",
                "testMethod"
            ],
            "name": "testGetSBYBAverageOrderValue",
            "parameters": [],
            "references": [],
            "returnType": "void",
            "type": null
        },
        {
            "annotations": [
                {
                    "name": "IsTest"
                }
            ],
            "location": {
                "column": 28,
                "line": 262
            },
            "modifiers": [
                "private",
                "static",
                "testMethod"
            ],
            "name": "testGetGalleryAverageOrderValue",
            "parameters": [],
            "references": [],
            "returnType": "void",
            "type": null
        }
    ],
    "name": "TestPerCapReportController",
    "namespace": null,
    "parentClass": "",
    "properties": [
        {
            "annotations": [],
            "location": {
                "column": 25,
                "line": 10
            },
            "modifiers": [
                "private",
                "static"
            ],
            "name": "conf",
            "references": [],
            "type": "Confirmation__c"
        },
        {
            "annotations": [],
            "location": {
                "column": 28,
                "line": 11
            },
            "modifiers": [
                "private",
                "static"
            ],
            "name": "confO",
            "references": [],
            "type": "Confirmation__c"
        },
        {
            "annotations": [],
            "location": {
                "column": 28,
                "line": 12
            },
            "modifiers": [
                "private",
                "static"
            ],
            "name": "confT",
            "references": [],
            "type": "Confirmation__c"
        },
        {
            "annotations": [],
            "location": {
                "column": 28,
                "line": 13
            },
            "modifiers": [
                "private",
                "static"
            ],
            "name": "confG",
            "references": [],
            "type": "Confirmation__c"
        },
        {
            "annotations": [],
            "location": {
                "column": 22,
                "line": 14
            },
            "modifiers": [
                "private",
                "static"
            ],
            "name": "season",
            "references": [],
            "type": "Season__c"
        },
        {
            "annotations": [],
            "location": {
                "column": 20,
                "line": 15
            },
            "modifiers": [
                "private",
                "static"
            ],
            "name": "acct",
            "references": [],
            "type": "Account"
        },
        {
            "annotations": [],
            "location": {
                "column": 20,
                "line": 16
            },
            "modifiers": [
                "private",
                "static"
            ],
            "name": "acct2",
            "references": [],
            "type": "Account"
        },
        {
            "annotations": [],
            "location": {
                "column": 20,
                "line": 17
            },
            "modifiers": [
                "private",
                "static"
            ],
            "name": "acct3",
            "references": [],
            "type": "Account"
        },
        {
            "annotations": [],
            "location": {
                "column": 20,
                "line": 18
            },
            "modifiers": [
                "private",
                "static"
            ],
            "name": "acct4",
            "references": [],
            "type": "Account"
        },
        {
            "annotations": [],
            "location": {
                "column": 20,
                "line": 19
            },
            "modifiers": [
                "private",
                "static"
            ],
            "name": "form",
            "references": [],
            "type": "Form__c"
        },
        {
            "annotations": [],
            "location": {
                "column": 20,
                "line": 20
            },
            "modifiers": [
                "private",
                "static"
            ],
            "name": "formS",
            "references": [],
            "type": "Form__c"
        },
        {
            "annotations": [],
            "location": {
                "column": 20,
                "line": 21
            },
            "modifiers": [
                "private",
                "static"
            ],
            "name": "formA",
            "references": [],
            "type": "Form__c"
        },
        {
            "annotations": [],
            "location": {
                "column": 20,
                "line": 22
            },
            "modifiers": [
                "private",
                "static"
            ],
            "name": "formB",
            "references": [],
            "type": "Form__c"
        },
        {
            "annotations": [],
            "location": {
                "column": 20,
                "line": 23
            },
            "modifiers": [
                "private",
                "static"
            ],
            "name": "formC",
            "references": [],
            "type": "Form__c"
        },
        {
            "annotations": [],
            "location": {
                "column": 20,
                "line": 24
            },
            "modifiers": [
                "private",
                "static"
            ],
            "name": "formD",
            "references": [],
            "type": "Form__c"
        },
        {
            "annotations": [],
            "location": {
                "column": 20,
                "line": 25
            },
            "modifiers": [
                "private",
                "static"
            ],
            "name": "formF",
            "references": [],
            "type": "Form__c"
        }
    ],
    "tableDeclaration": {
        "annotations": [
            {
                "name": "IsTest"
            }
        ],
        "location": {
            "column": 15,
            "line": 2
        },
        "modifiers": [
            "private",
            "testMethod"
        ],
        "name": "TestPerCapReportController",
        "references": [],
        "type": "TestPerCapReportController"
    },
    "variables": [
        {
            "annotations": [],
            "location": {
                "column": 16,
                "line": 28
            },
            "modifiers": [],
            "name": "var",
            "references": [],
            "type": "Variables__c"
        },
        {
            "annotations": [],
            "location": {
                "column": 20,
                "line": 47
            },
            "modifiers": [],
            "name": "recordtype",
            "references": [],
            "type": "RecordType"
        },
        {
            "annotations": [],
            "location": {
                "column": 20,
                "line": 56
            },
            "modifiers": [],
            "name": "recordtype2",
            "references": [],
            "type": "RecordType"
        },
        {
            "annotations": [],
            "location": {
                "column": 20,
                "line": 65
            },
            "modifiers": [],
            "name": "recordtype3",
            "references": [],
            "type": "RecordType"
        },
        {
            "annotations": [],
            "location": {
                "column": 20,
                "line": 74
            },
            "modifiers": [],
            "name": "recordtype4",
            "references": [],
            "type": "RecordType"
        },
        {
            "annotations": [],
            "location": {
                "column": 32,
                "line": 147
            },
            "modifiers": [],
            "name": "sc",
            "references": [],
            "type": "StandardController"
        },
        {
            "annotations": [],
            "location": {
                "column": 26,
                "line": 148
            },
            "modifiers": [],
            "name": "pcr",
            "references": [],
            "type": "PerCapReportController"
        },
        {
            "annotations": [],
            "location": {
                "column": 32,
                "line": 158
            },
            "modifiers": [],
            "name": "sc",
            "references": [],
            "type": "StandardController"
        },
        {
            "annotations": [],
            "location": {
                "column": 26,
                "line": 159
            },
            "modifiers": [],
            "name": "pcr",
            "references": [],
            "type": "PerCapReportController"
        },
        {
            "annotations": [],
            "location": {
                "column": 32,
                "line": 169
            },
            "modifiers": [],
            "name": "sc",
            "references": [],
            "type": "StandardController"
        },
        {
            "annotations": [],
            "location": {
                "column": 26,
                "line": 170
            },
            "modifiers": [],
            "name": "pcr",
            "references": [],
            "type": "PerCapReportController"
        },
        {
            "annotations": [],
            "location": {
                "column": 38,
                "line": 185
            },
            "modifiers": [],
            "name": "sc",
            "references": [],
            "type": "StandardController"
        },
        {
            "annotations": [],
            "location": {
                "column": 32,
                "line": 186
            },
            "modifiers": [],
            "name": "pcr",
            "references": [],
            "type": "PerCapReportController"
        },
        {
            "annotations": [],
            "location": {
                "column": 38,
                "line": 200
            },
            "modifiers": [],
            "name": "sc",
            "references": [],
            "type": "StandardController"
        },
        {
            "annotations": [],
            "location": {
                "column": 32,
                "line": 201
            },
            "modifiers": [],
            "name": "pcr",
            "references": [],
            "type": "PerCapReportController"
        },
        {
            "annotations": [],
            "location": {
                "column": 38,
                "line": 215
            },
            "modifiers": [],
            "name": "sc",
            "references": [],
            "type": "StandardController"
        },
        {
            "annotations": [],
            "location": {
                "column": 32,
                "line": 216
            },
            "modifiers": [],
            "name": "pcr",
            "references": [],
            "type": "PerCapReportController"
        },
        {
            "annotations": [],
            "location": {
                "column": 38,
                "line": 230
            },
            "modifiers": [],
            "name": "sc",
            "references": [],
            "type": "StandardController"
        },
        {
            "annotations": [],
            "location": {
                "column": 32,
                "line": 231
            },
            "modifiers": [],
            "name": "pcr",
            "references": [],
            "type": "PerCapReportController"
        },
        {
            "annotations": [],
            "location": {
                "column": 16,
                "line": 237
            },
            "modifiers": [],
            "name": "test1",
            "references": [],
            "type": "Double"
        },
        {
            "annotations": [],
            "location": {
                "column": 16,
                "line": 238
            },
            "modifiers": [],
            "name": "test2",
            "references": [],
            "type": "Double"
        },
        {
            "annotations": [],
            "location": {
                "column": 16,
                "line": 239
            },
            "modifiers": [],
            "name": "test3",
            "references": [],
            "type": "Double"
        },
        {
            "annotations": [],
            "location": {
                "column": 16,
                "line": 240
            },
            "modifiers": [],
            "name": "test4",
            "references": [],
            "type": "Double"
        },
        {
            "annotations": [],
            "location": {
                "column": 38,
                "line": 251
            },
            "modifiers": [],
            "name": "sc",
            "references": [],
            "type": "StandardController"
        },
        {
            "annotations": [],
            "location": {
                "column": 32,
                "line": 252
            },
            "modifiers": [],
            "name": "pcr",
            "references": [],
            "type": "PerCapReportController"
        },
        {
            "annotations": [],
            "location": {
                "column": 16,
                "line": 257
            },
            "modifiers": [],
            "name": "test",
            "references": [],
            "type": "Double"
        },
        {
            "annotations": [],
            "location": {
                "column": 38,
                "line": 265
            },
            "modifiers": [],
            "name": "sc",
            "references": [],
            "type": "StandardController"
        },
        {
            "annotations": [],
            "location": {
                "column": 32,
                "line": 266
            },
            "modifiers": [],
            "name": "pcr",
            "references": [],
            "type": "PerCapReportController"
        },
        {
            "annotations": [],
            "location": {
                "column": 16,
                "line": 271
            },
            "modifiers": [],
            "name": "test",
            "references": [],
            "type": "Double"
        }
    ]
}