{
    "constructors": [],
    "externalReferences": [],
    "id": "01p3B0000006ZhWQAU",
    "innerClasses": [],
    "interfaces": [],
    "key": "01p3B0000006ZhWQAU",
    "methods": [
        {
            "annotations": [
                {
                    "name": "IsTest"
                }
            ],
            "location": {
                "column": 14,
                "line": 5
            },
            "modifiers": [
                "private",
                "static",
                "testMethod"
            ],
            "name": "testGetData",
            "parameters": [],
            "references": [],
            "returnType": "void",
            "type": null
        }
    ],
    "name": "TestOrderLinesViewApexController",
    "namespace": null,
    "parentClass": "",
    "properties": [],
    "tableDeclaration": {
        "annotations": [
            {
                "name": "IsTest"
            }
        ],
        "location": {
            "column": 15,
            "line": 2
        },
        "modifiers": [
            "private",
            "testMethod"
        ],
        "name": "TestOrderLinesViewApexController",
        "references": [],
        "type": "TestOrderLinesViewApexController"
    },
    "variables": [
        {
            "annotations": [],
            "location": {
                "column": 11,
                "line": 10
            },
            "modifiers": [],
            "name": "acct",
            "references": [],
            "type": "Account"
        },
        {
            "annotations": [],
            "location": {
                "column": 11,
                "line": 13
            },
            "modifiers": [],
            "name": "ct",
            "references": [],
            "type": "Contact"
        },
        {
            "annotations": [],
            "location": {
                "column": 13,
                "line": 16
            },
            "modifiers": [],
            "name": "season",
            "references": [],
            "type": "Season__c"
        },
        {
            "annotations": [],
            "location": {
                "column": 19,
                "line": 19
            },
            "modifiers": [],
            "name": "confirm",
            "references": [],
            "type": "Confirmation__c"
        },
        {
            "annotations": [],
            "location": {
                "column": 11,
                "line": 22
            },
            "modifiers": [],
            "name": "form",
            "references": [],
            "type": "Form__c"
        },
        {
            "annotations": [],
            "location": {
                "column": 20,
                "line": 25
            },
            "modifiers": [],
            "name": "lines",
            "references": [],
            "type": "LIST"
        }
    ]
}