{
    "constructors": [],
    "externalReferences": [],
    "id": "01p3B000000BwM8QAK",
    "innerClasses": [],
    "interfaces": [],
    "key": "01p3B000000BwM8QAK",
    "methods": [
        {
            "annotations": [],
            "location": {
                "column": 14,
                "line": 9
            },
            "modifiers": [
                "private",
                "static"
            ],
            "name": "setup",
            "parameters": [],
            "references": [],
            "returnType": "void",
            "type": null
        },
        {
            "annotations": [
                {
                    "name": "IsTest"
                }
            ],
            "location": {
                "column": 14,
                "line": 50
            },
            "modifiers": [
                "private",
                "static",
                "testMethod"
            ],
            "name": "testGetForms",
            "parameters": [],
            "references": [],
            "returnType": "void",
            "type": null
        },
        {
            "annotations": [
                {
                    "name": "IsTest"
                }
            ],
            "location": {
                "column": 14,
                "line": 60
            },
            "modifiers": [
                "private",
                "static",
                "testMethod"
            ],
            "name": "testMarks",
            "parameters": [],
            "references": [],
            "returnType": "void",
            "type": null
        },
        {
            "annotations": [
                {
                    "name": "IsTest"
                }
            ],
            "location": {
                "column": 14,
                "line": 78
            },
            "modifiers": [
                "private",
                "static",
                "testMethod"
            ],
            "name": "testGetExport",
            "parameters": [],
            "references": [],
            "returnType": "void",
            "type": null
        }
    ],
    "name": "TestPlanetPressApexController",
    "namespace": null,
    "parentClass": "",
    "properties": [
        {
            "annotations": [],
            "location": {
                "column": 25,
                "line": 4
            },
            "modifiers": [
                "private",
                "static"
            ],
            "name": "confirm",
            "references": [],
            "type": "Confirmation__c"
        },
        {
            "annotations": [],
            "location": {
                "column": 17,
                "line": 5
            },
            "modifiers": [
                "private",
                "static"
            ],
            "name": "form",
            "references": [],
            "type": "Form__c"
        },
        {
            "annotations": [],
            "location": {
                "column": 32,
                "line": 6
            },
            "modifiers": [
                "private",
                "static"
            ],
            "name": "confirmProd",
            "references": [],
            "type": "ConfirmationProduct__c"
        },
        {
            "annotations": [],
            "location": {
                "column": 19,
                "line": 7
            },
            "modifiers": [
                "private",
                "static"
            ],
            "name": "season",
            "references": [],
            "type": "Season__c"
        }
    ],
    "tableDeclaration": {
        "annotations": [
            {
                "name": "IsTest"
            }
        ],
        "location": {
            "column": 15,
            "line": 2
        },
        "modifiers": [
            "private",
            "testMethod"
        ],
        "name": "TestPlanetPressApexController",
        "references": [],
        "type": "TestPlanetPressApexController"
    },
    "variables": [
        {
            "annotations": [],
            "location": {
                "column": 11,
                "line": 15
            },
            "modifiers": [],
            "name": "acct",
            "references": [],
            "type": "Account"
        },
        {
            "annotations": [],
            "location": {
                "column": 11,
                "line": 18
            },
            "modifiers": [],
            "name": "ct",
            "references": [],
            "type": "Contact"
        },
        {
            "annotations": [],
            "location": {
                "column": 11,
                "line": 27
            },
            "modifiers": [],
            "name": "formA",
            "references": [],
            "type": "Form__c"
        },
        {
            "annotations": [],
            "location": {
                "column": 16,
                "line": 39
            },
            "modifiers": [],
            "name": "prod",
            "references": [],
            "type": "OWProduct__c"
        },
        {
            "annotations": [],
            "location": {
                "column": 20,
                "line": 42
            },
            "modifiers": [],
            "name": "sp",
            "references": [],
            "type": "SeasonProduct__c"
        },
        {
            "annotations": [],
            "location": {
                "column": 17,
                "line": 54
            },
            "modifiers": [],
            "name": "forms",
            "references": [],
            "type": "LIST"
        },
        {
            "annotations": [],
            "location": {
                "column": 17,
                "line": 64
            },
            "modifiers": [],
            "name": "forms",
            "references": [],
            "type": "LIST"
        },
        {
            "annotations": [],
            "location": {
                "column": 15,
                "line": 66
            },
            "modifiers": [],
            "name": "fm",
            "references": [],
            "type": "Form__c"
        },
        {
            "annotations": [],
            "location": {
                "column": 12,
                "line": 68
            },
            "modifiers": [],
            "name": "success",
            "references": [],
            "type": "Boolean"
        },
        {
            "annotations": [],
            "location": {
                "column": 17,
                "line": 82
            },
            "modifiers": [],
            "name": "forms",
            "references": [],
            "type": "LIST"
        },
        {
            "annotations": [],
            "location": {
                "column": 10,
                "line": 83
            },
            "modifiers": [],
            "name": "result",
            "references": [],
            "type": "String"
        }
    ]
}