{
    "constructors": [],
    "externalReferences": [],
    "id": "01p3B000000Fr8wQAC",
    "innerClasses": [],
    "interfaces": [],
    "key": "01p3B000000Fr8wQAC",
    "methods": [
        {
            "annotations": [
                {
                    "name": "IsTest"
                }
            ],
            "location": {
                "column": 17,
                "line": 10
            },
            "modifiers": [
                "private",
                "static",
                "testMethod"
            ],
            "name": "setup",
            "parameters": [],
            "references": [],
            "returnType": "void",
            "type": null
        },
        {
            "annotations": [
                {
                    "name": "IsTest"
                }
            ],
            "location": {
                "column": 17,
                "line": 35
            },
            "modifiers": [
                "private",
                "static",
                "testMethod"
            ],
            "name": "testGetInfo",
            "parameters": [],
            "references": [],
            "returnType": "void",
            "type": null
        },
        {
            "annotations": [
                {
                    "name": "IsTest"
                }
            ],
            "location": {
                "column": 17,
                "line": 47
            },
            "modifiers": [
                "private",
                "static",
                "testMethod"
            ],
            "name": "testGetConfirmationProducts",
            "parameters": [],
            "references": [],
            "returnType": "void",
            "type": null
        },
        {
            "annotations": [
                {
                    "name": "IsTest"
                }
            ],
            "location": {
                "column": 17,
                "line": 63
            },
            "modifiers": [
                "private",
                "static",
                "testMethod"
            ],
            "name": "testGetFormatPhone",
            "parameters": [],
            "references": [],
            "returnType": "void",
            "type": null
        },
        {
            "annotations": [
                {
                    "name": "IsTest"
                }
            ],
            "location": {
                "column": 17,
                "line": 81
            },
            "modifiers": [
                "private",
                "static",
                "testMethod"
            ],
            "name": "testGetDFLCoord",
            "parameters": [],
            "references": [],
            "returnType": "void",
            "type": null
        },
        {
            "annotations": [
                {
                    "name": "IsTest"
                }
            ],
            "location": {
                "column": 17,
                "line": 102
            },
            "modifiers": [
                "private",
                "static",
                "testMethod"
            ],
            "name": "testGetEnglishDFL",
            "parameters": [],
            "references": [],
            "returnType": "void",
            "type": null
        },
        {
            "annotations": [
                {
                    "name": "IsTest"
                }
            ],
            "location": {
                "column": 17,
                "line": 120
            },
            "modifiers": [
                "private",
                "static",
                "testMethod"
            ],
            "name": "testGetSpanishDFL",
            "parameters": [],
            "references": [],
            "returnType": "void",
            "type": null
        },
        {
            "annotations": [
                {
                    "name": "IsTest"
                }
            ],
            "location": {
                "column": 17,
                "line": 138
            },
            "modifiers": [
                "private",
                "static",
                "testMethod"
            ],
            "name": "testGetDFLSBYBOP",
            "parameters": [],
            "references": [],
            "returnType": "void",
            "type": null
        },
        {
            "annotations": [
                {
                    "name": "IsTest"
                }
            ],
            "location": {
                "column": 17,
                "line": 179
            },
            "modifiers": [
                "private",
                "static",
                "testMethod"
            ],
            "name": "testGetGalleryForm",
            "parameters": [],
            "references": [],
            "returnType": "void",
            "type": null
        },
        {
            "annotations": [
                {
                    "name": "IsTest"
                }
            ],
            "location": {
                "column": 17,
                "line": 194
            },
            "modifiers": [
                "private",
                "static",
                "testMethod"
            ],
            "name": "testGetEnglishSpanishDFLs",
            "parameters": [],
            "references": [],
            "returnType": "void",
            "type": null
        }
    ],
    "name": "TestDearFamilyLetterExtension",
    "namespace": null,
    "parentClass": "",
    "properties": [
        {
            "annotations": [],
            "location": {
                "column": 20,
                "line": 4
            },
            "modifiers": [
                "private",
                "static"
            ],
            "name": "acct",
            "references": [],
            "type": "Account"
        },
        {
            "annotations": [],
            "location": {
                "column": 22,
                "line": 5
            },
            "modifiers": [
                "private",
                "static"
            ],
            "name": "season",
            "references": [],
            "type": "Season__c"
        },
        {
            "annotations": [],
            "location": {
                "column": 29,
                "line": 6
            },
            "modifiers": [
                "private",
                "static"
            ],
            "name": "seasonproduct",
            "references": [],
            "type": "SeasonProduct__c"
        },
        {
            "annotations": [],
            "location": {
                "column": 28,
                "line": 7
            },
            "modifiers": [
                "private",
                "static"
            ],
            "name": "conf",
            "references": [],
            "type": "Confirmation__c"
        }
    ],
    "tableDeclaration": {
        "annotations": [
            {
                "name": "IsTest"
            }
        ],
        "location": {
            "column": 15,
            "line": 2
        },
        "modifiers": [
            "private",
            "testMethod"
        ],
        "name": "TestDearFamilyLetterExtension",
        "references": [],
        "type": "TestDearFamilyLetterExtension"
    },
    "variables": [
        {
            "annotations": [],
            "location": {
                "column": 22,
                "line": 13
            },
            "modifiers": [],
            "name": "var",
            "references": [],
            "type": "Variables__c"
        },
        {
            "annotations": [],
            "location": {
                "column": 20,
                "line": 18
            },
            "modifiers": [],
            "name": "recordtype",
            "references": [],
            "type": "RecordType"
        },
        {
            "annotations": [],
            "location": {
                "column": 38,
                "line": 38
            },
            "modifiers": [],
            "name": "sc",
            "references": [],
            "type": "StandardController"
        },
        {
            "annotations": [],
            "location": {
                "column": 35,
                "line": 39
            },
            "modifiers": [],
            "name": "dfle",
            "references": [],
            "type": "DearFamilyLetterExtension"
        },
        {
            "annotations": [],
            "location": {
                "column": 25,
                "line": 41
            },
            "modifiers": [],
            "name": "test",
            "references": [],
            "type": "Confirmation__c"
        },
        {
            "annotations": [],
            "location": {
                "column": 38,
                "line": 50
            },
            "modifiers": [],
            "name": "sc",
            "references": [],
            "type": "StandardController"
        },
        {
            "annotations": [],
            "location": {
                "column": 35,
                "line": 51
            },
            "modifiers": [],
            "name": "dfle",
            "references": [],
            "type": "DearFamilyLetterExtension"
        },
        {
            "annotations": [],
            "location": {
                "column": 38,
                "line": 53
            },
            "modifiers": [],
            "name": "confirmationproducts",
            "references": [],
            "type": "LIST"
        },
        {
            "annotations": [],
            "location": {
                "column": 38,
                "line": 57
            },
            "modifiers": [],
            "name": "confirmationproductsspanish",
            "references": [],
            "type": "LIST"
        },
        {
            "annotations": [],
            "location": {
                "column": 38,
                "line": 66
            },
            "modifiers": [],
            "name": "sc",
            "references": [],
            "type": "StandardController"
        },
        {
            "annotations": [],
            "location": {
                "column": 35,
                "line": 67
            },
            "modifiers": [],
            "name": "dfle",
            "references": [],
            "type": "DearFamilyLetterExtension"
        },
        {
            "annotations": [],
            "location": {
                "column": 16,
                "line": 70
            },
            "modifiers": [],
            "name": "test",
            "references": [],
            "type": "String"
        },
        {
            "annotations": [],
            "location": {
                "column": 38,
                "line": 73
            },
            "modifiers": [],
            "name": "sc2",
            "references": [],
            "type": "StandardController"
        },
        {
            "annotations": [],
            "location": {
                "column": 35,
                "line": 74
            },
            "modifiers": [],
            "name": "dfle2",
            "references": [],
            "type": "DearFamilyLetterExtension"
        },
        {
            "annotations": [],
            "location": {
                "column": 16,
                "line": 76
            },
            "modifiers": [],
            "name": "test2",
            "references": [],
            "type": "String"
        },
        {
            "annotations": [],
            "location": {
                "column": 17,
                "line": 84
            },
            "modifiers": [],
            "name": "contact",
            "references": [],
            "type": "Contact"
        },
        {
            "annotations": [],
            "location": {
                "column": 32,
                "line": 86
            },
            "modifiers": [],
            "name": "ccon",
            "references": [],
            "type": "ConfirmationContact__c"
        },
        {
            "annotations": [],
            "location": {
                "column": 38,
                "line": 92
            },
            "modifiers": [],
            "name": "sc",
            "references": [],
            "type": "StandardController"
        },
        {
            "annotations": [],
            "location": {
                "column": 35,
                "line": 93
            },
            "modifiers": [],
            "name": "dfle",
            "references": [],
            "type": "DearFamilyLetterExtension"
        },
        {
            "annotations": [],
            "location": {
                "column": 17,
                "line": 95
            },
            "modifiers": [],
            "name": "getcon",
            "references": [],
            "type": "Contact"
        },
        {
            "annotations": [],
            "location": {
                "column": 38,
                "line": 106
            },
            "modifiers": [],
            "name": "sc",
            "references": [],
            "type": "StandardController"
        },
        {
            "annotations": [],
            "location": {
                "column": 35,
                "line": 107
            },
            "modifiers": [],
            "name": "dfle",
            "references": [],
            "type": "DearFamilyLetterExtension"
        },
        {
            "annotations": [],
            "location": {
                "column": 16,
                "line": 109
            },
            "modifiers": [],
            "name": "testURL",
            "references": [],
            "type": "String"
        },
        {
            "annotations": [],
            "location": {
                "column": 16,
                "line": 112
            },
            "modifiers": [],
            "name": "testURL2",
            "references": [],
            "type": "String"
        },
        {
            "annotations": [],
            "location": {
                "column": 26,
                "line": 115
            },
            "modifiers": [],
            "name": "attachments",
            "references": [],
            "type": "LIST"
        },
        {
            "annotations": [],
            "location": {
                "column": 38,
                "line": 124
            },
            "modifiers": [],
            "name": "sc",
            "references": [],
            "type": "StandardController"
        },
        {
            "annotations": [],
            "location": {
                "column": 35,
                "line": 125
            },
            "modifiers": [],
            "name": "dfle",
            "references": [],
            "type": "DearFamilyLetterExtension"
        },
        {
            "annotations": [],
            "location": {
                "column": 16,
                "line": 127
            },
            "modifiers": [],
            "name": "testURL",
            "references": [],
            "type": "String"
        },
        {
            "annotations": [],
            "location": {
                "column": 16,
                "line": 130
            },
            "modifiers": [],
            "name": "testURL2",
            "references": [],
            "type": "String"
        },
        {
            "annotations": [],
            "location": {
                "column": 26,
                "line": 133
            },
            "modifiers": [],
            "name": "attachments",
            "references": [],
            "type": "LIST"
        },
        {
            "annotations": [],
            "location": {
                "column": 38,
                "line": 142
            },
            "modifiers": [],
            "name": "sc",
            "references": [],
            "type": "StandardController"
        },
        {
            "annotations": [],
            "location": {
                "column": 35,
                "line": 143
            },
            "modifiers": [],
            "name": "dfle",
            "references": [],
            "type": "DearFamilyLetterExtension"
        },
        {
            "annotations": [],
            "location": {
                "column": 16,
                "line": 145
            },
            "modifiers": [],
            "name": "testURL",
            "references": [],
            "type": "String"
        },
        {
            "annotations": [],
            "location": {
                "column": 26,
                "line": 148
            },
            "modifiers": [],
            "name": "attachments",
            "references": [],
            "type": "LIST"
        },
        {
            "annotations": [],
            "location": {
                "column": 38,
                "line": 183
            },
            "modifiers": [],
            "name": "sc",
            "references": [],
            "type": "StandardController"
        },
        {
            "annotations": [],
            "location": {
                "column": 35,
                "line": 184
            },
            "modifiers": [],
            "name": "dfle",
            "references": [],
            "type": "DearFamilyLetterExtension"
        },
        {
            "annotations": [],
            "location": {
                "column": 16,
                "line": 186
            },
            "modifiers": [],
            "name": "testURL",
            "references": [],
            "type": "String"
        },
        {
            "annotations": [],
            "location": {
                "column": 26,
                "line": 189
            },
            "modifiers": [],
            "name": "attachments",
            "references": [],
            "type": "LIST"
        },
        {
            "annotations": [],
            "location": {
                "column": 38,
                "line": 198
            },
            "modifiers": [],
            "name": "sc",
            "references": [],
            "type": "StandardController"
        },
        {
            "annotations": [],
            "location": {
                "column": 35,
                "line": 199
            },
            "modifiers": [],
            "name": "dfle",
            "references": [],
            "type": "DearFamilyLetterExtension"
        },
        {
            "annotations": [],
            "location": {
                "column": 16,
                "line": 201
            },
            "modifiers": [],
            "name": "testURL",
            "references": [],
            "type": "String"
        },
        {
            "annotations": [],
            "location": {
                "column": 26,
                "line": 204
            },
            "modifiers": [],
            "name": "attachments",
            "references": [],
            "type": "LIST"
        }
    ]
}