{
    "constructors": [],
    "externalReferences": [],
    "id": "01p3B000000G561QAC",
    "innerClasses": [],
    "interfaces": [],
    "key": "01p3B000000G561QAC",
    "methods": [
        {
            "annotations": [],
            "location": {
                "column": 14,
                "line": 8
            },
            "modifiers": [
                "private",
                "static"
            ],
            "name": "setup",
            "parameters": [],
            "references": [],
            "returnType": "void",
            "type": null
        },
        {
            "annotations": [
                {
                    "name": "IsTest"
                }
            ],
            "location": {
                "column": 14,
                "line": 39
            },
            "modifiers": [
                "private",
                "static",
                "testMethod"
            ],
            "name": "testGetConfirmation",
            "parameters": [],
            "references": [],
            "returnType": "void",
            "type": null
        },
        {
            "annotations": [
                {
                    "name": "IsTest"
                }
            ],
            "location": {
                "column": 14,
                "line": 48
            },
            "modifiers": [
                "private",
                "static",
                "testMethod"
            ],
            "name": "testGetForms",
            "parameters": [],
            "references": [],
            "returnType": "void",
            "type": null
        },
        {
            "annotations": [
                {
                    "name": "IsTest"
                }
            ],
            "location": {
                "column": 14,
                "line": 57
            },
            "modifiers": [
                "private",
                "static",
                "testMethod"
            ],
            "name": "testGetOrders",
            "parameters": [],
            "references": [],
            "returnType": "void",
            "type": null
        },
        {
            "annotations": [
                {
                    "name": "IsTest"
                }
            ],
            "location": {
                "column": 14,
                "line": 66
            },
            "modifiers": [
                "private",
                "static",
                "testMethod"
            ],
            "name": "testGetProductsForConfirmation",
            "parameters": [],
            "references": [],
            "returnType": "void",
            "type": null
        },
        {
            "annotations": [
                {
                    "name": "IsTest"
                }
            ],
            "location": {
                "column": 14,
                "line": 75
            },
            "modifiers": [
                "private",
                "static",
                "testMethod"
            ],
            "name": "testSave",
            "parameters": [],
            "references": [],
            "returnType": "void",
            "type": null
        }
    ],
    "name": "TestOrderEntryComponentController",
    "namespace": null,
    "parentClass": "",
    "properties": [
        {
            "annotations": [],
            "location": {
                "column": 25,
                "line": 4
            },
            "modifiers": [
                "private",
                "static"
            ],
            "name": "confirm",
            "references": [],
            "type": "Confirmation__c"
        },
        {
            "annotations": [],
            "location": {
                "column": 17,
                "line": 5
            },
            "modifiers": [
                "private",
                "static"
            ],
            "name": "form",
            "references": [],
            "type": "Form__c"
        },
        {
            "annotations": [],
            "location": {
                "column": 32,
                "line": 6
            },
            "modifiers": [
                "private",
                "static"
            ],
            "name": "confirmProd",
            "references": [],
            "type": "ConfirmationProduct__c"
        }
    ],
    "tableDeclaration": {
        "annotations": [
            {
                "name": "IsTest"
            }
        ],
        "location": {
            "column": 15,
            "line": 2
        },
        "modifiers": [
            "private",
            "testMethod"
        ],
        "name": "TestOrderEntryComponentController",
        "references": [],
        "type": "TestOrderEntryComponentController"
    },
    "variables": [
        {
            "annotations": [],
            "location": {
                "column": 11,
                "line": 13
            },
            "modifiers": [],
            "name": "acct",
            "references": [],
            "type": "Account"
        },
        {
            "annotations": [],
            "location": {
                "column": 11,
                "line": 16
            },
            "modifiers": [],
            "name": "ct",
            "references": [],
            "type": "Contact"
        },
        {
            "annotations": [],
            "location": {
                "column": 13,
                "line": 19
            },
            "modifiers": [],
            "name": "season",
            "references": [],
            "type": "Season__c"
        },
        {
            "annotations": [],
            "location": {
                "column": 16,
                "line": 28
            },
            "modifiers": [],
            "name": "prod",
            "references": [],
            "type": "OWProduct__c"
        },
        {
            "annotations": [],
            "location": {
                "column": 20,
                "line": 31
            },
            "modifiers": [],
            "name": "sp",
            "references": [],
            "type": "SeasonProduct__c"
        },
        {
            "annotations": [],
            "location": {
                "column": 19,
                "line": 43
            },
            "modifiers": [],
            "name": "con",
            "references": [],
            "type": "Confirmation__c"
        },
        {
            "annotations": [],
            "location": {
                "column": 17,
                "line": 52
            },
            "modifiers": [],
            "name": "forms",
            "references": [],
            "type": "LIST"
        },
        {
            "annotations": [],
            "location": {
                "column": 20,
                "line": 61
            },
            "modifiers": [],
            "name": "orders",
            "references": [],
            "type": "LIST"
        },
        {
            "annotations": [],
            "location": {
                "column": 32,
                "line": 70
            },
            "modifiers": [],
            "name": "prods",
            "references": [],
            "type": "LIST"
        },
        {
            "annotations": [],
            "location": {
                "column": 10,
                "line": 79
            },
            "modifiers": [],
            "name": "inOrders",
            "references": [],
            "type": "String"
        }
    ]
}