{
    "constructors": [],
    "externalReferences": [],
    "id": "01p3B000000C93OQAS",
    "innerClasses": [],
    "interfaces": [],
    "key": "01p3B000000C93OQAS",
    "methods": [
        {
            "annotations": [
                {
                    "name": "IsTest"
                }
            ],
            "location": {
                "column": 14,
                "line": 5
            },
            "modifiers": [
                "private",
                "static",
                "testMethod"
            ],
            "name": "testGetData",
            "parameters": [],
            "references": [],
            "returnType": "void",
            "type": null
        }
    ],
    "name": "TestConfirmProdRecordController",
    "namespace": null,
    "parentClass": "",
    "properties": [],
    "tableDeclaration": {
        "annotations": [
            {
                "name": "IsTest"
            }
        ],
        "location": {
            "column": 15,
            "line": 2
        },
        "modifiers": [
            "private",
            "testMethod"
        ],
        "name": "TestConfirmProdRecordController",
        "references": [],
        "type": "TestConfirmProdRecordController"
    },
    "variables": [
        {
            "annotations": [],
            "location": {
                "column": 11,
                "line": 10
            },
            "modifiers": [],
            "name": "acct",
            "references": [],
            "type": "Account"
        },
        {
            "annotations": [],
            "location": {
                "column": 11,
                "line": 13
            },
            "modifiers": [],
            "name": "ct",
            "references": [],
            "type": "Contact"
        },
        {
            "annotations": [],
            "location": {
                "column": 13,
                "line": 16
            },
            "modifiers": [],
            "name": "season",
            "references": [],
            "type": "Season__c"
        },
        {
            "annotations": [],
            "location": {
                "column": 19,
                "line": 19
            },
            "modifiers": [],
            "name": "confirm",
            "references": [],
            "type": "Confirmation__c"
        },
        {
            "annotations": [],
            "location": {
                "column": 16,
                "line": 22
            },
            "modifiers": [],
            "name": "prod",
            "references": [],
            "type": "OWProduct__c"
        },
        {
            "annotations": [],
            "location": {
                "column": 20,
                "line": 25
            },
            "modifiers": [],
            "name": "seasonProd",
            "references": [],
            "type": "SeasonProduct__c"
        },
        {
            "annotations": [],
            "location": {
                "column": 32,
                "line": 28
            },
            "modifiers": [],
            "name": "lines",
            "references": [],
            "type": "LIST"
        },
        {
            "annotations": [],
            "location": {
                "column": 26,
                "line": 30
            },
            "modifiers": [],
            "name": "cp",
            "references": [],
            "type": "ConfirmationProduct__c"
        },
        {
            "annotations": [],
            "location": {
                "column": 10,
                "line": 32
            },
            "modifiers": [],
            "name": "userStr",
            "references": [],
            "type": "String"
        },
        {
            "annotations": [],
            "location": {
                "column": 10,
                "line": 33
            },
            "modifiers": [],
            "name": "confirmStr",
            "references": [],
            "type": "String"
        },
        {
            "annotations": [],
            "location": {
                "column": 10,
                "line": 34
            },
            "modifiers": [],
            "name": "spStr",
            "references": [],
            "type": "String"
        },
        {
            "annotations": [],
            "location": {
                "column": 10,
                "line": 35
            },
            "modifiers": [],
            "name": "owStr",
            "references": [],
            "type": "String"
        },
        {
            "annotations": [],
            "location": {
                "column": 10,
                "line": 37
            },
            "modifiers": [],
            "name": "jsonObj",
            "references": [],
            "type": "String"
        },
        {
            "annotations": [],
            "location": {
                "column": 10,
                "line": 38
            },
            "modifiers": [],
            "name": "status",
            "references": [],
            "type": "String"
        }
    ]
}