{
    "constructors": [],
    "externalReferences": [],
    "id": "01p3B0000006aZEQAY",
    "innerClasses": [],
    "interfaces": [],
    "key": "01p3B0000006aZEQAY",
    "methods": [
        {
            "annotations": [],
            "location": {
                "column": 35,
                "line": 4
            },
            "modifiers": [
                "static",
                "public"
            ],
            "name": "getSeasons",
            "parameters": [],
            "references": [],
            "returnType": "LIST",
            "type": null
        },
        {
            "annotations": [],
            "location": {
                "column": 22,
                "line": 11
            },
            "modifiers": [
                "static",
                "public"
            ],
            "name": "getCurrentSeason",
            "parameters": [],
            "references": [],
            "returnType": "Id",
            "type": null
        },
        {
            "annotations": [],
            "location": {
                "column": 28,
                "line": 26
            },
            "modifiers": [
                "static",
                "public"
            ],
            "name": "getStartDate",
            "parameters": [],
            "references": [],
            "returnType": "Datetime",
            "type": null
        },
        {
            "annotations": [],
            "location": {
                "column": 32,
                "line": 38
            },
            "modifiers": [
                "static",
                "public"
            ],
            "name": "getWarehouses",
            "parameters": [],
            "references": [],
            "returnType": "LIST",
            "type": null
        },
        {
            "annotations": [],
            "location": {
                "column": 30,
                "line": 53
            },
            "modifiers": [
                "static",
                "public"
            ],
            "name": "getFormsForSeason",
            "parameters": [
                {
                    "name": "seasonId",
                    "type": "Id"
                }
            ],
            "references": [],
            "returnType": "LIST",
            "type": null
        },
        {
            "annotations": [],
            "location": {
                "column": 41,
                "line": 61
            },
            "modifiers": [
                "static",
                "public"
            ],
            "name": "getConfirmsForSeason",
            "parameters": [
                {
                    "name": "seasonId",
                    "type": "Id"
                }
            ],
            "references": [],
            "returnType": "LIST",
            "type": null
        },
        {
            "annotations": [],
            "location": {
                "column": 36,
                "line": 68
            },
            "modifiers": [
                "static",
                "public"
            ],
            "name": "getOrdersForSeason",
            "parameters": [
                {
                    "name": "seasonId",
                    "type": "Id"
                }
            ],
            "references": [],
            "returnType": "LIST",
            "type": null
        },
        {
            "annotations": [],
            "location": {
                "column": 33,
                "line": 74
            },
            "modifiers": [
                "static",
                "public"
            ],
            "name": "getOrdersForSeason",
            "parameters": [
                {
                    "name": "seasonId",
                    "type": "Id"
                },
                {
                    "name": "formIds",
                    "type": "LIST"
                }
            ],
            "references": [],
            "returnType": "LIST",
            "type": null
        }
    ],
    "name": "WIPComponentApexController",
    "namespace": null,
    "parentClass": "",
    "properties": [],
    "tableDeclaration": {
        "annotations": [],
        "location": {
            "column": 27,
            "line": 1
        },
        "modifiers": [
            "public",
            "with sharing"
        ],
        "name": "WIPComponentApexController",
        "references": [],
        "type": "WIPComponentApexController"
    },
    "variables": [
        {
            "annotations": [],
            "location": {
                "column": 25,
                "line": 6
            },
            "modifiers": [],
            "name": "seasons",
            "references": [],
            "type": "LIST"
        },
        {
            "annotations": [],
            "location": {
                "column": 22,
                "line": 13
            },
            "modifiers": [],
            "name": "var",
            "references": [],
            "type": "Variables__c"
        },
        {
            "annotations": [],
            "location": {
                "column": 16,
                "line": 14
            },
            "modifiers": [],
            "name": "defSeason",
            "references": [],
            "type": "String"
        },
        {
            "annotations": [],
            "location": {
                "column": 19,
                "line": 15
            },
            "modifiers": [],
            "name": "currentSeason",
            "references": [],
            "type": "Season__c"
        },
        {
            "annotations": [],
            "location": {
                "column": 18,
                "line": 28
            },
            "modifiers": [],
            "name": "current",
            "references": [],
            "type": "Datetime"
        },
        {
            "annotations": [],
            "location": {
                "column": 14,
                "line": 30
            },
            "modifiers": [],
            "name": "currDate",
            "references": [],
            "type": "Date"
        },
        {
            "annotations": [],
            "location": {
                "column": 14,
                "line": 31
            },
            "modifiers": [],
            "name": "currTime",
            "references": [],
            "type": "Time"
        },
        {
            "annotations": [],
            "location": {
                "column": 18,
                "line": 33
            },
            "modifiers": [],
            "name": "local",
            "references": [],
            "type": "Datetime"
        },
        {
            "annotations": [],
            "location": {
                "column": 33,
                "line": 40
            },
            "modifiers": [],
            "name": "fieldResult",
            "references": [],
            "type": "DescribeFieldResult"
        },
        {
            "annotations": [],
            "location": {
                "column": 33,
                "line": 41
            },
            "modifiers": [],
            "name": "ple",
            "references": [],
            "type": "LIST"
        },
        {
            "annotations": [],
            "location": {
                "column": 22,
                "line": 43
            },
            "modifiers": [],
            "name": "warehouses",
            "references": [],
            "type": "LIST"
        },
        {
            "annotations": [],
            "location": {
                "column": 32,
                "line": 44
            },
            "modifiers": [],
            "name": "f",
            "references": [],
            "type": "PicklistEntry"
        },
        {
            "annotations": [],
            "location": {
                "column": 51,
                "line": 53
            },
            "modifiers": [],
            "name": "seasonId",
            "references": [],
            "type": "Id"
        },
        {
            "annotations": [],
            "location": {
                "column": 17,
                "line": 55
            },
            "modifiers": [],
            "name": "forms",
            "references": [],
            "type": "LIST"
        },
        {
            "annotations": [],
            "location": {
                "column": 65,
                "line": 61
            },
            "modifiers": [],
            "name": "seasonId",
            "references": [],
            "type": "Id"
        },
        {
            "annotations": [],
            "location": {
                "column": 31,
                "line": 63
            },
            "modifiers": [],
            "name": "confirms",
            "references": [],
            "type": "LIST"
        },
        {
            "annotations": [],
            "location": {
                "column": 58,
                "line": 68
            },
            "modifiers": [],
            "name": "seasonId",
            "references": [],
            "type": "Id"
        },
        {
            "annotations": [],
            "location": {
                "column": 55,
                "line": 74
            },
            "modifiers": [],
            "name": "seasonId",
            "references": [],
            "type": "Id"
        },
        {
            "annotations": [],
            "location": {
                "column": 74,
                "line": 74
            },
            "modifiers": [],
            "name": "formIds",
            "references": [],
            "type": "LIST"
        },
        {
            "annotations": [],
            "location": {
                "column": 16,
                "line": 76
            },
            "modifiers": [],
            "name": "var",
            "references": [],
            "type": "Variables__c"
        },
        {
            "annotations": [],
            "location": {
                "column": 8,
                "line": 78
            },
            "modifiers": [],
            "name": "h",
            "references": [],
            "type": "Http"
        },
        {
            "annotations": [],
            "location": {
                "column": 21,
                "line": 79
            },
            "modifiers": [],
            "name": "req",
            "references": [],
            "type": "HttpRequest"
        },
        {
            "annotations": [],
            "location": {
                "column": 16,
                "line": 84
            },
            "modifiers": [],
            "name": "username",
            "references": [],
            "type": "String"
        },
        {
            "annotations": [],
            "location": {
                "column": 16,
                "line": 85
            },
            "modifiers": [],
            "name": "password",
            "references": [],
            "type": "String"
        },
        {
            "annotations": [],
            "location": {
                "column": 14,
                "line": 87
            },
            "modifiers": [],
            "name": "headerValue",
            "references": [],
            "type": "Blob"
        },
        {
            "annotations": [],
            "location": {
                "column": 13,
                "line": 88
            },
            "modifiers": [],
            "name": "authorizationHeader",
            "references": [],
            "type": "String"
        },
        {
            "annotations": [],
            "location": {
                "column": 22,
                "line": 91
            },
            "modifiers": [],
            "name": "res",
            "references": [],
            "type": "HttpResponse"
        },
        {
            "annotations": [],
            "location": {
                "column": 37,
                "line": 95
            },
            "modifiers": [],
            "name": "mock",
            "references": [],
            "type": "TestDatabaseCalloutMock"
        },
        {
            "annotations": [],
            "location": {
                "column": 30,
                "line": 115
            },
            "modifiers": [],
            "name": "lines",
            "references": [],
            "type": "LIST"
        }
    ]
}