{
    "constructors": [
        {
            "annotations": [],
            "location": {
                "column": 9,
                "line": 22
            },
            "modifiers": [
                "public"
            ],
            "name": "WIPReportController",
            "parameters": [],
            "references": [],
            "type": null
        }
    ],
    "externalReferences": [],
    "id": "01p3B0000006aoxQAA",
    "innerClasses": [
        {
            "constructors": [
                {
                    "annotations": [],
                    "location": {
                        "column": 16,
                        "line": 189
                    },
                    "modifiers": [
                        "public"
                    ],
                    "name": "WarehouseData",
                    "parameters": [
                        {
                            "name": "name",
                            "type": "String"
                        }
                    ],
                    "references": [],
                    "type": null
                }
            ],
            "externalReferences": [],
            "id": null,
            "innerClasses": [],
            "interfaces": [],
            "key": null,
            "methods": [],
            "name": "WarehouseData",
            "namespace": null,
            "parentClass": "",
            "properties": [
                {
                    "annotations": [],
                    "location": {
                        "column": 17,
                        "line": 178
                    },
                    "modifiers": [
                        "public"
                    ],
                    "name": "name",
                    "references": [],
                    "type": "String"
                },
                {
                    "annotations": [],
                    "location": {
                        "column": 17,
                        "line": 179
                    },
                    "modifiers": [
                        "public"
                    ],
                    "name": "sbybWHAssign",
                    "references": [],
                    "type": "Double"
                },
                {
                    "annotations": [],
                    "location": {
                        "column": 23,
                        "line": 180
                    },
                    "modifiers": [
                        "public"
                    ],
                    "name": "sbybShipped",
                    "references": [],
                    "type": "Double"
                },
                {
                    "annotations": [],
                    "location": {
                        "column": 23,
                        "line": 181
                    },
                    "modifiers": [
                        "public"
                    ],
                    "name": "sbybWip",
                    "references": [],
                    "type": "Double"
                },
                {
                    "annotations": [],
                    "location": {
                        "column": 23,
                        "line": 182
                    },
                    "modifiers": [
                        "public"
                    ],
                    "name": "ordersWHAssignTV",
                    "references": [],
                    "type": "Double"
                },
                {
                    "annotations": [],
                    "location": {
                        "column": 23,
                        "line": 183
                    },
                    "modifiers": [
                        "public"
                    ],
                    "name": "ordersWHShippedTV",
                    "references": [],
                    "type": "Double"
                },
                {
                    "annotations": [],
                    "location": {
                        "column": 23,
                        "line": 184
                    },
                    "modifiers": [
                        "public"
                    ],
                    "name": "ordersWHAssignOV",
                    "references": [],
                    "type": "Double"
                },
                {
                    "annotations": [],
                    "location": {
                        "column": 23,
                        "line": 185
                    },
                    "modifiers": [
                        "public"
                    ],
                    "name": "ordersWHShippedOV",
                    "references": [],
                    "type": "Double"
                },
                {
                    "annotations": [],
                    "location": {
                        "column": 23,
                        "line": 186
                    },
                    "modifiers": [
                        "public"
                    ],
                    "name": "wipTV",
                    "references": [],
                    "type": "Double"
                },
                {
                    "annotations": [],
                    "location": {
                        "column": 23,
                        "line": 187
                    },
                    "modifiers": [
                        "public"
                    ],
                    "name": "wipOV",
                    "references": [],
                    "type": "Double"
                }
            ],
            "tableDeclaration": {
                "annotations": [],
                "location": {
                    "column": 15,
                    "line": 176
                },
                "modifiers": [
                    "public"
                ],
                "name": "WarehouseData",
                "references": [],
                "type": "WarehouseData"
            },
            "variables": [
                {
                    "annotations": [],
                    "location": {
                        "column": 37,
                        "line": 189
                    },
                    "modifiers": [],
                    "name": "name",
                    "references": [],
                    "type": "String"
                }
            ]
        }
    ],
    "interfaces": [],
    "key": "01p3B0000006aoxQAA",
    "methods": [
        {
            "annotations": [],
            "location": {
                "column": 30,
                "line": 49
            },
            "modifiers": [
                "private"
            ],
            "name": "calculateWarehouseData",
            "parameters": [
                {
                    "name": "forms",
                    "type": "LIST"
                },
                {
                    "name": "orders",
                    "type": "LIST"
                }
            ],
            "references": [],
            "returnType": "LIST",
            "type": null
        },
        {
            "annotations": [],
            "location": {
                "column": 15,
                "line": 114
            },
            "modifiers": [
                "private"
            ],
            "name": "calculateCompanyTotals",
            "parameters": [
                {
                    "name": "forms",
                    "type": "LIST"
                },
                {
                    "name": "confirms",
                    "type": "LIST"
                }
            ],
            "references": [],
            "returnType": "void",
            "type": null
        }
    ],
    "name": "WIPReportController",
    "namespace": null,
    "parentClass": "",
    "properties": [
        {
            "annotations": [],
            "location": {
                "column": 19,
                "line": 3
            },
            "modifiers": [
                "public"
            ],
            "name": "season",
            "references": [],
            "type": "Season__c"
        },
        {
            "annotations": [],
            "location": {
                "column": 18,
                "line": 4
            },
            "modifiers": [
                "public"
            ],
            "name": "thruDate",
            "references": [],
            "type": "Datetime"
        },
        {
            "annotations": [],
            "location": {
                "column": 22,
                "line": 5
            },
            "modifiers": [
                "public"
            ],
            "name": "warehouses",
            "references": [],
            "type": "LIST"
        },
        {
            "annotations": [],
            "location": {
                "column": 29,
                "line": 6
            },
            "modifiers": [
                "public"
            ],
            "name": "warehouseData",
            "references": [],
            "type": "LIST"
        },
        {
            "annotations": [],
            "location": {
                "column": 17,
                "line": 7
            },
            "modifiers": [
                "public"
            ],
            "name": "sbybRcvd",
            "references": [],
            "type": "Integer"
        },
        {
            "annotations": [],
            "location": {
                "column": 16,
                "line": 8
            },
            "modifiers": [
                "public"
            ],
            "name": "tvRcvd",
            "references": [],
            "type": "Double"
        },
        {
            "annotations": [],
            "location": {
                "column": 17,
                "line": 9
            },
            "modifiers": [
                "public"
            ],
            "name": "sbybOE",
            "references": [],
            "type": "Integer"
        },
        {
            "annotations": [],
            "location": {
                "column": 16,
                "line": 10
            },
            "modifiers": [
                "public"
            ],
            "name": "tvOE",
            "references": [],
            "type": "Double"
        },
        {
            "annotations": [],
            "location": {
                "column": 16,
                "line": 11
            },
            "modifiers": [
                "public"
            ],
            "name": "ovOE",
            "references": [],
            "type": "Double"
        },
        {
            "annotations": [],
            "location": {
                "column": 17,
                "line": 12
            },
            "modifiers": [
                "public"
            ],
            "name": "sbybWH",
            "references": [],
            "type": "Integer"
        },
        {
            "annotations": [],
            "location": {
                "column": 17,
                "line": 13
            },
            "modifiers": [
                "public"
            ],
            "name": "sbybShipped",
            "references": [],
            "type": "Integer"
        },
        {
            "annotations": [],
            "location": {
                "column": 16,
                "line": 14
            },
            "modifiers": [
                "public"
            ],
            "name": "tvWH",
            "references": [],
            "type": "Double"
        },
        {
            "annotations": [],
            "location": {
                "column": 16,
                "line": 15
            },
            "modifiers": [
                "public"
            ],
            "name": "ovWH",
            "references": [],
            "type": "Double"
        },
        {
            "annotations": [],
            "location": {
                "column": 16,
                "line": 16
            },
            "modifiers": [
                "public"
            ],
            "name": "tvShipped",
            "references": [],
            "type": "Double"
        },
        {
            "annotations": [],
            "location": {
                "column": 16,
                "line": 17
            },
            "modifiers": [
                "public"
            ],
            "name": "ovShipped",
            "references": [],
            "type": "Double"
        },
        {
            "annotations": [],
            "location": {
                "column": 17,
                "line": 18
            },
            "modifiers": [
                "public"
            ],
            "name": "sbybWIP",
            "references": [],
            "type": "Integer"
        },
        {
            "annotations": [],
            "location": {
                "column": 16,
                "line": 19
            },
            "modifiers": [
                "public"
            ],
            "name": "tvWIP",
            "references": [],
            "type": "Double"
        },
        {
            "annotations": [],
            "location": {
                "column": 16,
                "line": 20
            },
            "modifiers": [
                "public"
            ],
            "name": "ovWIP",
            "references": [],
            "type": "Double"
        }
    ],
    "tableDeclaration": {
        "annotations": [],
        "location": {
            "column": 27,
            "line": 1
        },
        "modifiers": [
            "public",
            "with sharing"
        ],
        "name": "WIPReportController",
        "references": [],
        "type": "WIPReportController"
    },
    "variables": [
        {
            "annotations": [],
            "location": {
                "column": 6,
                "line": 24
            },
            "modifiers": [],
            "name": "seasonId",
            "references": [],
            "type": "Id"
        },
        {
            "annotations": [],
            "location": {
                "column": 10,
                "line": 25
            },
            "modifiers": [],
            "name": "dateTimeString",
            "references": [],
            "type": "String"
        },
        {
            "annotations": [],
            "location": {
                "column": 12,
                "line": 28
            },
            "modifiers": [],
            "name": "gmtDT",
            "references": [],
            "type": "Datetime"
        },
        {
            "annotations": [],
            "location": {
                "column": 12,
                "line": 31
            },
            "modifiers": [],
            "name": "tz",
            "references": [],
            "type": "TimeZone"
        },
        {
            "annotations": [],
            "location": {
                "column": 17,
                "line": 37
            },
            "modifiers": [],
            "name": "forms",
            "references": [],
            "type": "LIST"
        },
        {
            "annotations": [],
            "location": {
                "column": 25,
                "line": 38
            },
            "modifiers": [],
            "name": "confirms",
            "references": [],
            "type": "LIST"
        },
        {
            "annotations": [],
            "location": {
                "column": 12,
                "line": 39
            },
            "modifiers": [],
            "name": "formIds",
            "references": [],
            "type": "LIST"
        },
        {
            "annotations": [],
            "location": {
                "column": 15,
                "line": 40
            },
            "modifiers": [],
            "name": "form",
            "references": [],
            "type": "Form__c"
        },
        {
            "annotations": [],
            "location": {
                "column": 20,
                "line": 43
            },
            "modifiers": [],
            "name": "orders",
            "references": [],
            "type": "LIST"
        },
        {
            "annotations": [],
            "location": {
                "column": 67,
                "line": 49
            },
            "modifiers": [],
            "name": "forms",
            "references": [],
            "type": "LIST"
        },
        {
            "annotations": [],
            "location": {
                "column": 91,
                "line": 49
            },
            "modifiers": [],
            "name": "orders",
            "references": [],
            "type": "LIST"
        },
        {
            "annotations": [],
            "location": {
                "column": 23,
                "line": 51
            },
            "modifiers": [],
            "name": "whData",
            "references": [],
            "type": "LIST"
        },
        {
            "annotations": [],
            "location": {
                "column": 14,
                "line": 52
            },
            "modifiers": [],
            "name": "wh",
            "references": [],
            "type": "String"
        },
        {
            "annotations": [],
            "location": {
                "column": 24,
                "line": 54
            },
            "modifiers": [],
            "name": "wd",
            "references": [],
            "type": "WarehouseData"
        },
        {
            "annotations": [],
            "location": {
                "column": 18,
                "line": 56
            },
            "modifiers": [],
            "name": "magsTotal",
            "references": [],
            "type": "Integer"
        },
        {
            "annotations": [],
            "location": {
                "column": 25,
                "line": 57
            },
            "modifiers": [],
            "name": "form",
            "references": [],
            "type": "Form__c"
        },
        {
            "annotations": [],
            "location": {
                "column": 17,
                "line": 59
            },
            "modifiers": [],
            "name": "formId",
            "references": [],
            "type": "Id"
        },
        {
            "annotations": [],
            "location": {
                "column": 21,
                "line": 60
            },
            "modifiers": [],
            "name": "formWarehouse",
            "references": [],
            "type": "String"
        },
        {
            "annotations": [],
            "location": {
                "column": 21,
                "line": 61
            },
            "modifiers": [],
            "name": "confirmType",
            "references": [],
            "type": "String"
        },
        {
            "annotations": [],
            "location": {
                "column": 21,
                "line": 62
            },
            "modifiers": [],
            "name": "formType",
            "references": [],
            "type": "String"
        },
        {
            "annotations": [],
            "location": {
                "column": 19,
                "line": 63
            },
            "modifiers": [],
            "name": "formShipDate",
            "references": [],
            "type": "Date"
        },
        {
            "annotations": [],
            "location": {
                "column": 19,
                "line": 70
            },
            "modifiers": [],
            "name": "magsForForm",
            "references": [],
            "type": "Integer"
        },
        {
            "annotations": [],
            "location": {
                "column": 26,
                "line": 83
            },
            "modifiers": [],
            "name": "order",
            "references": [],
            "type": "Orderlines"
        },
        {
            "annotations": [],
            "location": {
                "column": 52,
                "line": 114
            },
            "modifiers": [],
            "name": "forms",
            "references": [],
            "type": "LIST"
        },
        {
            "annotations": [],
            "location": {
                "column": 81,
                "line": 114
            },
            "modifiers": [],
            "name": "confirms",
            "references": [],
            "type": "LIST"
        },
        {
            "annotations": [],
            "location": {
                "column": 11,
                "line": 130
            },
            "modifiers": [],
            "name": "mags",
            "references": [],
            "type": "Integer"
        },
        {
            "annotations": [],
            "location": {
                "column": 15,
                "line": 132
            },
            "modifiers": [],
            "name": "form",
            "references": [],
            "type": "Form__c"
        },
        {
            "annotations": [],
            "location": {
                "column": 29,
                "line": 149
            },
            "modifiers": [],
            "name": "confirm",
            "references": [],
            "type": "Confirmation__c"
        },
        {
            "annotations": [],
            "location": {
                "column": 21,
                "line": 160
            },
            "modifiers": [],
            "name": "ware",
            "references": [],
            "type": "WarehouseData"
        }
    ]
}